﻿[LINE] 與Bella(淑娟)的聊天記錄
儲存日期：2016/06/24 17:37

2016/01/05(週二)
15:39,Bella(淑娟),HI
15:40,Bella(淑娟),[圖片]
15:43,YuJia,是我們工程師的  可麻煩塞到門縫下嗎
15:43,Bella(淑娟),"好呀,我去縫囉~"
15:43,YuJia,謝謝
15:49,Bella(淑娟),"不會,但因為你那個門有一個門檔,所以只卡在門塞和門檔間,你要拿時要特別記得,不然在裡面是看不到的,謝啦~"
15:50,YuJia,[貼圖]

2016/01/12(週二)
16:20,YuJia,請問一樓會議室的門牌是多少呢?
16:20,Bella(淑娟),R109

2016/01/20(週三)
13:52,Bella(淑娟),"HELLO,SIIR開始申囉~"
13:53,Bella(淑娟),"申請囉~今天我們有寄了申請須知和計畫書格式,再請你看看有沒有興趣,謝謝~"
14:42,YuJia,[貼圖]

2016/01/25(週一)
14:04,YuJia,我們1500 才會用
14:04,YuJia,看你們這一小時需不需要
14:06,Bella(淑娟),"了,沒關係,謝你"
16:39,Bella(淑娟),[圖片]
16:39,Bella(淑娟),[圖片]
16:39,Bella(淑娟),[圖片]

2016/01/29(週五)
10:07,Bella(淑娟),HELLO
10:07,Bella(淑娟),請問你家那間培育室紗窗有破需要修繕嗎
10:08,YuJia,沒有喔

2016/02/22(週一)
10:01,Bella(淑娟),"Alan,請問一下,因為有收到你的信件,想再問你一些事情,不知是方便電話和你連絡,還是直接用LINE(怕打太長)"
10:04,YuJia,有電話嗎  我等等打
10:04,Bella(淑娟),我打給你啦~
10:05,Bella(淑娟),"你OK再和我說,再給我電話"
10:05,YuJia,大概11點  我再line你
10:05,Bella(淑娟),好滴~
11:14,Bella(淑娟),"HELLO,若今天在11:30沒和你連絡的話,就等明天囉~感謝~"
11:16,YuJia,可以打嘍
11:17,Bella(淑娟),電話是非@?
11:17,YuJia,0932961079

2016/03/01(週二)
11:21,Bella(淑娟),HELLO~我家同仁有把3月份管理費明細表塞到你家門縫哦~
11:23,YuJia,[貼圖]

2016/03/07(週一)
16:40,Bella(淑娟),"hi~我把我們雙方的合約書,放到你的在育成的信箱唷~"
17:02,YuJia,!甚麼合約書?
17:02,YuJia,如果是需要處理的事 可放到樓上門縫下
17:02,Bella(淑娟),營運合約啦
17:03,YuJia,我們需要做甚麼嗎?
17:03,Bella(淑娟),忘了給你了
17:03,Bella(淑娟),那太厚了放不下去
17:03,YuJia,OKOK
17:03,Bella(淑娟),[貼圖]

2016/03/22(週二)
10:08,Bella(淑娟),ALEN
10:08,Bella(淑娟),這是你們的海報
10:09,Bella(淑娟),[圖片]
10:09,Bella(淑娟),"看看有沒有誤,會協助輸出,謝謝"
10:10,YuJia,沒問題 謝謝
10:10,Bella(淑娟),"感謝,那屆時結束會將海報送給貴公司"

2016/03/25(週五)
11:24,Bella(淑娟),"HELLO,3/29活動的捐贈品項,我們是不是先作一個東西,拿到再和你們拿帳號嗎"
11:58,YuJia,給我們email 就可以了
13:07,Bella(淑娟),好的~

2016/04/06(週三)
15:20,Bella(淑娟),"ALEN,目前有得到你們贈送得主有收集到這些,再請先作業囉,謝謝~"
15:20,Bella(淑娟),策略雲三個月使用版權得主

黃建銘先生
raiden_huang@tynesys.com

考及第先生
edward.kao@astar-tek.com

李盈岑
ellen_lee@tynesys.com

蕭夏煖
shannon.hsiao@astar-tek.com
15:40,YuJia,好的  會直接幫他們開帳號
15:41,Bella(淑娟),那你會寄信告知他們說有開帳號了嗎
15:41,YuJia,會
15:41,Bella(淑娟),感恩
15:42,Bella(淑娟),"有些人我還在詢問中,再和你說哦~"
15:42,YuJia,好
15:42,Bella(淑娟),[貼圖]

2016/04/12(週二)
15:18,Bella(淑娟),"ALEN,麻煩你了"
15:18,Bella(淑娟),最後的權限得主
15:19,YuJia,我有寄信給他們喔
15:19,Bella(淑娟),感謝
15:19,YuJia,OK~
15:19,Bella(淑娟),另外想請教你最近會來嗎
15:19,YuJia,晚上常去
15:19,YuJia,怎
15:19,Bella(淑娟),若不來的話想電話和你說一下專業諮詢的事
15:19,YuJia,OK 我Call妳
15:19,Bella(淑娟),感謝~
15:20,YuJia,電話?
15:20,Bella(淑娟),蔡朝旭
CHTSAI00@alumni.itri.org.tw

林尚豪
jeffrey.lin@teleconlab.com

吳植葵
ck.wu@ekepower.com

張建平
leo290h@gmail.com
15:20,Bella(淑娟),我的是5726653#20
15:20,Bella(淑娟),感謝
15:30,Bella(淑娟),你封信件是從台南市林森一段149號9樓A寄來的
15:43,YuJia,OK
15:43,Bella(淑娟),[貼圖]

2016/04/18(週一)
15:42,Bella(淑娟),HI~
15:43,Bella(淑娟),"想請你幫忙提供401報表及勞保單表,我提供證明給你填,請你填後核大小章後回傳影本即可,謝謝囉~"
15:44,Bella(淑娟),[檔案]
15:44,Bella(淑娟),[檔案]
15:45,YuJia,0元也要嗎
15:48,Bella(淑娟),"恩,再麻煩了"
15:48,Bella(淑娟),我們也有一家公司來了五年一直0元
15:48,Bella(淑娟),直到第六年才有收入
15:50,YuJia,我找一天帶大小章過去找妳  周四下午方便嗎
15:51,Bella(淑娟),"我會準備好,若我不在也可以找我同事,感謝的"
15:51,YuJia,OK
15:51,Bella(淑娟),所以營業我都填0
15:51,Bella(淑娟),而人數呢
15:51,YuJia,對
15:51,YuJia,4
15:51,YuJia,4 4 4 4
15:51,Bella(淑娟),"好的,謝謝~"

2016/04/19(週二)
15:05,YuJia,http://fintechbase.com.tw/download-application-documents.html
15:06,Bella(淑娟),你們家要申請呀~
15:27,YuJia,評估中
15:27,Bella(淑娟),若有申請時再請告知我們哦
15:28,YuJia,哈
15:28,YuJia,有什麼協助嗎
15:35,Bella(淑娟),"當然囉,要找你作業績的"
15:54,YuJia,[貼圖]

2016/04/20(週三)
15:42,Bella(淑娟),"HELLO,ALEN,你昨天提到參與競賽部分是那個呢"
18:19,YuJia,你寄信給我一下

2016/04/21(週四)
8:39,Bella(淑娟),"好的~寄給你囉,再麻煩了,謝謝"
9:11,Bella(淑娟),"ALEN,我可以請問一下嘛,你們家那台冷氣是舊的還是新的呢?"
9:12,Bella(淑娟),"若你不記得的話,我方便去打開看嘛"
9:39,YuJia,可以
9:55,Bella(淑娟),"有,我去看了,是新的"
10:51,YuJia,我現在帶印章去找你
10:51,Bella(淑娟),"好,我下午也要請假,謝囉"
10:52,Bella(淑娟),你MAIL寄了嗎
10:52,Bella(淑娟),那個有關競賽的事
11:50,Bella(淑娟),ALEN
11:51,Bella(淑娟),你們獲獎的部分暫時先考量為交大e-News頭條訊息
11:51,Bella(淑娟),"這種是校內和校友都會收到,你應該也有收過吧"
11:51,Bella(淑娟),我也是再寄一份給你看
11:51,Bella(淑娟),請你先準備文稿
11:52,YuJia,好  要等明示出來之後我再給你聞稿
11:52,YuJia,名次
11:52,Bella(淑娟),"好的,麻煩您了"

2016/04/22(週五)
12:46,YuJia,我發覺沒有報名文件有寫到公司的鳴子
12:47,Bella(淑娟),那就可能沒用了，沒關係
12:47,YuJia,[貼圖]
12:49,Bella(淑娟),[貼圖]

2016/04/26(週二)
11:29,YuJia,104力挺年輕朋友創新創業，與台大、交大、Garage+等五大育成加速器合作推出「新創企業」專區，針對育成機構轉介、成立不到3年的新創企業startup，提供一年免費刊登人才招募廣告，不限次數與家數。
11:30,Bella(淑娟),加速的活動
11:30,YuJia,我們可伸請嗎
11:45,Bella(淑娟),"可以吧,但要去那申請我可能要去了解一下"

2016/04/27(週三)
8:48,Bella(淑娟),"昨天去開會,今天再回覆你104這個唷~"
8:48,Bella(淑娟),"另外,和你推薦一個計畫案"
8:48,Bella(淑娟),http://accelerator.twcloud.org.tw/Plan.aspx
8:50,YuJia,[貼圖]
8:50,Bella(淑娟),雲豹計畫是工研院的
9:31,Bella(淑娟),我有問到了
9:32,Bella(淑娟),"104那個案現在只是先曝光,未來會有辦法推出,會努力協助你去推那個案的~承辦人是交大自己人"
10:03,YuJia,[貼圖]

2016/05/02(週一)
9:46,YuJia,http://www.accupass.com/event/register/1604080909173434831450
9:46,YuJia,這我們可參加擺攤嗎
10:01,Bella(淑娟),不知來不來的及
10:01,Bella(淑娟),今天又沒上班，明天可能才能問哩
10:02,YuJia,Ok 所以本來不是給博愛的廠商?
10:03,Bella(淑娟),那是加速的，
10:04,Bella(淑娟),先前有和你提要讓你去加速的二期
10:04,YuJia,喔喔
10:05,Bella(淑娟),約五月開二期訊息

2016/05/03(週二)
9:55,Bella(淑娟),你提的那個活動已經是報名截止了
9:55,Bella(淑娟),"我未來還是會安排你去參與加速計畫,到時就能得到他們所有活動訊息,也期望對你們公司有所助益,謝謝啦~"
11:46,YuJia,[貼圖]

2016/05/13(週五)
8:35,Bella(淑娟),HI~
8:35,Bella(淑娟),"再提醒一下,有關專業諮詢的部分要準備送件囉~"
12:12,YuJia,Hi 這部分我們找了幾個  都不適合  可能幫不上忙
12:55,Bella(淑娟),恩，沒關係，但因為在期中前需求要有一件還是我幫你安排和我們執行長會議呢
12:56,YuJia,好挖
12:56,Bella(淑娟),因為他今日請休，我下週時安排你們見面，，謝謝
12:59,YuJia,調察員  巡佐  適合寫嗎
13:01,Bella(淑娟),但調查員工作怎麼和你們有關呢
13:05,YuJia,是經濟犯罪的
13:05,Bella(淑娟),恩，主要還是要和你們產品能怎麼運用上
13:09,YuJia,Ok 我再想
13:09,YuJia,先不用約執行長 
13:10,Bella(淑娟),恩，若沒的話也沒關係，除了約執行長外，也可以你們自己隨便寫一篇，沒計費那種
13:11,Bella(淑娟),專家家隨你們填，但就像交差的，沒費用即是
13:12,YuJia,那自己填還要約執行張嗎
13:12,Bella(淑娟),都可，擇一
13:13,Bella(淑娟),自己填就不約了
13:13,YuJia,那我們傾向自己填
13:13,Bella(淑娟),可，因為有些廠商也會如此
13:14,Bella(淑娟),但再請520前回傳，謝。
13:17,YuJia,自己填的話只要電子檔嗎
13:27,Bella(淑娟),對，簽名都不用

2016/05/17(週二)
10:37,YuJia,請問自己填的 姓名是誰寫呢
10:37,YuJia,用一樣的表格嗎
10:47,Bella(淑娟),對
10:47,Bella(淑娟),[檔案]
22:36,YuJia,[檔案]
22:36,Bella(淑娟),感謝

2016/05/23(週一)
15:53,Bella(淑娟),"HELLO,有空時再請你育成中心蓋大小章唷~有401表及員工人數報及服務紀錄表,謝謝囉"
15:54,YuJia,好  要下周  本周出差喔
15:54,Bella(淑娟),"好的,那再麻煩哩~我先備好紙本"

2016/05/31(週二)
8:42,Bella(淑娟),HI
8:42,Bella(淑娟),"請問一下,你這週什麼時間會來核章呢"

2016/06/07(週二)
23:47,YuJia,http://rd.nctu.edu.tw/news&dbid=s71u
23:47,YuJia,請問這個我們適合嗎

2016/06/08(週三)
9:55,Bella(淑娟),"歡迎去參加,我後續把一些文件丟給你"
9:55,Bella(淑娟),我把他寄到你的MAIL唷~
11:29,YuJia,所以我們適合喔 我以為是給 還沒有產品或是還未成立公司的
11:29,YuJia,方便打給我嗎
13:32,Bella(淑娟),"哦哦,我晚些再回來打給你哦~"
13:32,Bella(淑娟),我去開會
14:08,YuJia,[貼圖]

2016/06/16(週四)
15:27,Bella(淑娟),記得去投種子基金的案哦
15:27,Bella(淑娟),我覺得今年度參加的人目前沒什麼人
15:27,YuJia,不一定耶  我們會評估 因為錢不多  幫助有限
15:28,Bella(淑娟),"多無小補,再請評估看看"
15:28,YuJia,http://fintechbase.com.tw/demo-submenu/83-general-cultivating-new-team-record-finalists.html
15:28,YuJia,給你們業績
15:29,Bella(淑娟),[貼圖]
15:29,Bella(淑娟),這個有錢嘛
15:29,YuJia,沒有orz
15:29,YuJia,沒上補助型  會去拼第二梯次的
15:29,Bella(淑娟),"了解,不過對你們有幫助較重要"
15:29,Bella(淑娟),GOGO~~
15:48,YuJia,對了 如果育成公司 有需要接案的  可以跟我們說
15:49,YuJia,有在找接案的
15:49,YuJia,我們主要是網頁設計和資料分析
15:51,Bella(淑娟),"好,因為這個部分也許確實會有人需求,感謝了"

2016/06/24(週五)
12:26,YuJia,您已結束通話
15:46,Bella(淑娟),HELLO
15:46,Bella(淑娟),你今天中午找我嗎
15:50,YuJia,沒事嘍
15:50,Bella(淑娟),"好的,抱歉,中午午餐沒注意到"
15:50,YuJia,[貼圖]
