﻿[LINE] 康基嘉的聊天記錄
儲存日期：2016/06/24 17:46

2014/06/27(週五)
16:06	王康	我8月考完要找你們鬼混，是去台北比較方便還是約新竹
16:23	YuJia	水喔 確定幾號再說
18:16	不明	[貼圖]

2014/07/09(週三)
20:31	王康	[貼圖]

2014/07/11(週五)
20:52	王康	您二位最近如何阿
20:53	YuJia	哈 我八月會回去一陣子
20:53	王康	暑假？
20:57	YuJia	我沒暑假
20:58	王康	[貼圖]
23:39	不明	嘉，你啥時回去？
23:39	不明	我再排假

2014/07/12(週六)
10:30	王康	好棒喔～你們要回來
10:30	王康	來來來來～恁來
10:31	王康	[貼圖]
11:47	YuJia	知道跟你說

2014/07/14(週一)
23:06	王康	幹！嘉你手臂大頭肌那一坨是真的還是影子造成的線條
23:06	王康	馮笛索喔！
23:08	王康	準備要去拍玩命關頭7就對了

2014/07/15(週二)
9:11	YuJia	陰影拉= =
9:12	YuJia	[貼圖]
9:13	王康	那一坨要是真的，󾇔大概一拳就被你幹倒了，哈
9:14	王康	這是哪邊的海啊
11:54	YuJia	無名的海邊 基隆附近 哈

2014/07/23(週三)
17:36	王康	喲喲喲

2014/07/24(週四)
22:27	王康	雞～你有遇過犯嫌自行到場自首的嗎
23:00	不明	很少
23:00	不明	逃逸外勞來自首倒比較多
23:00	不明	他們想要搭免錢飛機回去
23:01	王康	逃逸外勞的業務現在應該都轉給移民署嗎
23:02	不明	移民署吃屎的
23:02	王康	[貼圖]
23:02	不明	也是要警察抓
23:02	不明	我們每年都有配績效
23:03	王康	嗯嗯！逃逸外勞要抓都要到山區或是港區比較多
23:04	王康	市區....大概就剩應召站XD
23:11	王康	之前蠻多果園、種茶葉、畜牧業有時候會藏1～2個

2014/07/25(週五)
11:11	不明	工地最多
11:12	王康	這麼明目張膽哦～哈哈
11:12	王康	連躲都不想躲XD
13:40	不明	很會跑

2014/07/27(週日)
17:12	王康	剛看到對面國小在辦拔河
17:14	王康	以前國小拔河比賽的時候，我跟嘉都是互相站在左右
17:14	王康	啊～好久遠阿阿阿

2014/08/01(週五)
11:02	YuJia	有喔 靠你怎還記得
11:03	YuJia	康你家還平安嗎
11:03	王康	剛好都避開
11:03	YuJia	[貼圖]
11:03	王康	謝啦
11:17	不明	康杰你家那裡沒怎麼樣吧
11:17	不明	剛剛看到新聞
11:17	王康	沒事沒事，只是無限期斷電
11:17	不明	好扯
11:18	王康	我家後面一心路幾乎整條報銷
11:18	王康	早上天亮跑去看
11:18	不明	哇靠
11:18	不明	先不要靠近比較好
11:18	王康	嗯嗯
12:41	YuJia	停電怎辦
12:41	王康	熱啊
12:42	YuJia	可以住親棄家嗎
12:43	王康	看我爸媽意思吧，不是住親戚家就是住旅館了
13:20	不明	超熱吧
13:20	不明	高雄蠻熱的
13:20	不明	沒電風扇會死人
13:20	王康	我現在只剩內褲
13:21	王康	而且還是要繼續看書
13:25	YuJia	[貼圖]
13:25	YuJia	加油!!!
13:34	不明	拍照
14:33	王康	拍啥照，要我露F奶給你看嗎～
14:38	不明	[貼圖]

2014/08/02(週六)
9:58	王康	有電了
9:58	王康	[貼圖]
10:12	YuJia	[貼圖]
11:03	王康	󾇔
11:04	王康	你之前帶我去那間廟在哪
11:05	YuJia	󾇔?
11:06	王康	梁雞
11:53	不明	鹽埕區
11:55	不明	文武聖殿

http://goo.gl/maps/5vhJQ
13:42	王康	謝謝

2014/08/03(週日)
10:09	王康	有電沒水
10:09	王康	[貼圖]
10:10	王康	過著打水的生活～
10:10	王康	慶幸的是昨天終於好好睡了一覺
10:11	王康	早上6點恢復原來的唸書進度，繼續唸
10:11	王康	[貼圖]
10:31	YuJia	[貼圖]
10:31	YuJia	加油阿 
10:50	不明	[貼圖]
10:50	不明	加油

2014/08/07(週四)
8:05	王康	你們什麼時候回回高雄
9:01	YuJia	下下週
9:44	王康	嗯！那時候我考完了
9:44	王康	我16、17考
10:33	不明	[貼圖]

2014/08/17(週日)
18:55	王康	[貼圖]
18:55	王康	[貼圖]
18:55	王康	[貼圖]
18:59	王康	考完了
18:59	王康	爽啊
21:51	王康	你們啥時回來
21:52	王康	踹共踹共
22:04	YuJia	明天
22:29	不明	我已經在高雄了
22:33	王康	明天好!
22:33	王康	明天和實 哪裡
22:34	王康	幹
22:34	不明	？
22:34	王康	你門回來都不講
22:36	王康	[貼圖]
23:05	YuJia	我連我爸媽也還沒講X D
23:06	王康	所以明天要出來嗎
23:08	不明	可以阿
23:08	不明	晚上？
23:08	王康	我都ok
23:22	不明	看嘉吧

2014/08/18(週一)
8:14	王康	嘉
8:15	王康	我媽說你可以祝我家
8:15	王康	她不會跟你爸媽講XD
8:17	YuJia	…
8:17	王康	我媽比較free一點XD
8:17	王康	你也知道
8:56	YuJia	[貼圖]
8:57	王康	快點阿~今天有沒有要碰面
9:21	王康	今天晚上嗎？
9:50	不明	看嘉可不可以
10:09	YuJia	明天吧
15:37	YuJia	康今晚可以嗎
15:37	YuJia	吃飯
15:37	王康	Ok
15:38	不明	吃那
15:45	王康	我都ok
15:47	YuJia	訂一下 我要去搭高鐵了
15:49	王康	你不在高雄？
16:12	YuJia	No
16:17	王康	晚上要吃確定齁
16:24	YuJia	[貼圖]
16:29	王康	吃吶、時間
16:33	YuJia	吃輕井澤好了
16:34	YuJia	7點
16:34	王康	Ok
17:27	王康	我有訂位8：30了
17:28	王康	先定起來
17:28	王康	要吃別的再選
17:28	王康	嘉你幾點到
17:28	YuJia	830……
17:29	YuJia	吃別的吧 我2100得回家
17:29	YuJia	我1830到
17:29	王康	我查一下
17:30	王康	老四川？淨豆腐？
17:32	YuJia	都訂吧
17:39	王康	老四川7：45
17:40	王康	不過我覺得提早現場排應該不用到45分
17:40	王康	竟豆腐不開放定位
17:44	YuJia	7:00見吧
17:44	YuJia	老四川
17:48	王康	雞有看到齁
17:48	王康	老四川哦
18:02	不明	恩
18:57	王康	我到了
22:52	王康	我家明天早上沒人

2014/08/19(週二)
10:37	王康	昨天似乎吃太多了
10:37	王康	早上起床臉有點水腫
10:37	王康	馬上去跑步
10:46	YuJia	[貼圖]
11:13	不明	哈是喔
16:11	王康	[貼圖]
16:11	王康	雞 我之前不是問你文武聖殿在哪嗎
16:12	王康	後來我去拜拜
16:14	王康	拜完之後  我有看過的東西幾乎都考出來....
16:15	王康	雖然還是有一些地方有失誤到
16:15	王康	但是已經讓我感覺有如神助了
16:17	YuJia	[貼圖]
16:44	不明	水哦
16:44	不明	有上記得再去拜一下
16:46	王康	就還是去拜謝一下  不管結果如何

2014/08/20(週三)
15:53	王康	[貼圖]
15:54	王康	雞是今天什麼時候回去
16:21	王康	有沒有想出來唱歌還是怎樣
19:01	不明	我是今晚回去
19:01	不明	明天一早８點上班
19:21	王康	喔喔
19:22	王康	[貼圖]

2014/08/26(週二)
7:54	王康	前幾天跟一個妹去看電影
7:54	王康	看完之後
7:55	王康	我深深體會到 再也不要跟不是自己女友的女生看電影
7:55	王康	因為看完之後 也不能幹嘛 異常空虛
7:56	王康	[貼圖]
8:38	YuJia	[貼圖]
10:36	不明	[貼圖]
10:38	王康	是不是!!講來講去 還是能打砲最爽
12:14	不明	[貼圖]
12:24	YuJia	[貼圖]

2014/09/04(週四)
14:32	王康	[貼圖]

2014/09/07(週日)
1:56	YuJia	[圖片]
2:09	不明	[貼圖]
6:00	王康	[貼圖]
11:29	王康	你們2位中秋幹嘛
11:30	王康	嘉明天生日耶
11:36	YuJia	[貼圖]
12:11	不明	生日要跟誰慶祝呢
12:21	YuJia	還沒排耶
13:14	王康	雞應該問說～生日要跟誰睡呢
13:14	王康	然後回答才是還沒排耶
13:27	YuJia	[貼圖]
13:27	YuJia	只跟同一人睡吼
13:50	王康	[貼圖]

2014/09/17(週三)
11:10	王康	[貼圖]
11:10	王康	你門2最近怎樣
11:11	王康	殺警察太囂張了
11:11	王康	我朋友有傳給我 那個女的 露奶的自拍照 要看嗎XD
11:12	王康	[影片]
11:55	YuJia	……新聞怎沒報
12:22	不明	[貼圖]
13:46	王康	去台北一趟發現
13:47	王康	時下女生流行 高腰但露出整條腿
13:48	王康	短褲
13:48	王康	短板上衣露肚臍
13:48	王康	整個街道變成制服
13:49	王康	然後一定要畫粗眉毛
14:27	王康	哈
14:27	王康	我朋友說 傳錯
14:27	王康	那不是本人
14:30	YuJia	[貼圖]

2014/09/23(週二)
9:39	王康	[貼圖]

2014/09/26(週五)
18:11	YuJia	[貼圖]
20:05	不明	[貼圖]
20:06	王康	[貼圖]
21:42	王康	雞跟女友最近還好吧
21:43	不明	普普
21:52	王康	[貼圖]

2014/09/30(週二)
9:39	王康	雞  那時候我陪你去買一雙皮鞋  大概買多少錢還記得嗎
10:12	不明	好像４千吧
10:12	不明	怎麼了
10:22	王康	我最近也要買西裝跟皮鞋
10:23	王康	大概也是去阿瘦買
11:42	不明	是哦
11:43	不明	要結婚了嗎？
14:18	王康	不可能是我吧～哈哈哈
17:16	王康	[圖片]
17:50	YuJia	[貼圖]
19:23	不明	[貼圖]
19:23	不明	昨天又夢到她
19:24	不明	[貼圖]
19:24	王康	你們現在算分手了嗎
20:59	不明	話沒說得很死
20:59	不明	但差不多
21:01	王康	那2～3天先都不要聯絡看看
23:02	王康	終於做好了！超大隻模型
23:02	王康	做了2星期
23:03	王康	[圖片]
23:43	YuJia	多少錢阿
23:44	王康	2000多一些
23:44	王康	以前剛出的時候大概5000多
23:45	王康	以前一直沒空，趁現在等放榜很閒..買來打發時間
23:48	王康	話說雞還好吧?!

2014/10/01(週三)
8:16	不明	還好還好
20:16	王康	[貼圖]

2014/10/05(週日)
19:02	王康	[圖片]
22:52	不明	水喔
22:53	不明	那一家的
22:53	王康	IBAZO 隨便挑一家買的
22:54	王康	皮鞋後來是買cumar
22:54	王康	新光週年慶
23:10	YuJia	[貼圖]

2014/10/17(週五)
20:13	王康	高雄終於要開momo了
20:13	王康	下次我們吃飯就吃momo吧
22:59	YuJia	[貼圖]

2014/10/18(週六)
16:27	王康	雞跟女友還好吧？
16:27	王康	還是確定掰了

2014/10/20(週一)
22:49	不明	還沒阿
22:50	王康	那不錯啊
22:55	不明	還是在吵阿
22:55	王康	.....
22:55	不明	現在卡在他覺得我隨時會調回南部
22:55	不明	他沒安全感
22:56	王康	之前不是說都不會站在你的立場想
22:58	王康	她不願意跟你嫁去高雄嗎
23:41	不明	他不願意

2014/10/21(週二)
12:58	YuJia	[貼圖]

2014/10/24(週五)
14:36	王康	雞做啥夢這麼生氣
15:46	不明	忘了
15:46	不明	痛到忘記

2014/11/04(週二)
17:05	王康	[圖片]
17:05	王康	這個妹 2位覺得蝦款
18:50	不明	你的新對象嗎
19:14	王康	還稱不上對象
19:14	王康	剛認識幾天
19:15	王康	有空想約出去看看
20:32	YuJia	多認識呀

2014/11/05(週三)
24:18	王康	我很少出門啊
24:19	王康	很久沒認識女生了
24:20	王康	真的要多認識
7:52	不明	[貼圖]

2014/11/06(週四)
11:00	王康	昨天有拿到line 
11:01	王康	算是蠻順利的
11:03	王康	聊起來 狀況是蠻好的
11:04	王康	可能還是要約出來才知道感覺ok不ok
11:46	不明	[貼圖]
18:55	王康	雙魚座的
18:56	王康	跟雞同星座
18:56	王康	雙魚女生 柔情似水啊
18:57	王康	你們2個女友都啥星座來著

2014/11/07(週五)
11:18	不明	水瓶
11:48	YuJia	牡羊
11:50	王康	牡羊如何
11:52	YuJia	沒研究耶
11:52	王康	比較直吧
11:56	YuJia	[圖片]
11:59	王康	[貼圖]

2014/11/15(週六)
8:11	王康	我昨天跟同一個女生聊天
8:11	王康	聊著聊著 我就說
8:12	王康	傳張美腿照來助眠一下
8:12	王康	結果......
8:12	王康	[圖片]
8:13	王康	這腿根本是 235散播猥褻物品了XD
10:50	不明	…
10:50	不明	[貼圖]
12:39	YuJia	[貼圖]

2014/11/20(週四)
23:08	王康	都會回來投票嗎
23:21	YuJia	不會捏  爸媽說別人擠人
23:21	王康	喔喔

2014/11/21(週五)
16:02	不明	我得上班
16:02	不明	[貼圖]
16:05	王康	喔喔

2014/11/28(週五)
20:46	王康	有沒有覺得陳佩琪像老的張惠如
20:54	YuJia	早想說了
20:54	王康	哈哈哈
20:54	YuJia	[貼圖]
21:28	不明	在想什麼
21:28	不明	[貼圖]
21:33	王康	又想趁老師彎腰的時候偷看奶溝
21:53	YuJia	[貼圖]

2014/11/29(週六)
5:24	不明	老師的臉書呢

2014/12/03(週三)
16:41	王康	[圖片]
16:49	YuJia	[貼圖]

2014/12/12(週五)
11:17	王康	[影片]
11:18	王康	[圖片]
12:02	YuJia	[貼圖]
12:57	王康	7萬塊的屁股～

2015/01/01(週四)
19:59	王康	2位有回家嗎～～～～
21:03	YuJia	沒耶
21:09	不明	沒哦
21:10	王康	[貼圖]

2015/01/08(週四)
20:09	王康	最近2位過的怎樣
21:27	不明	都在中部辦案
21:27	不明	每天來回
21:27	不明	累死了
22:40	YuJia	呵呵 拚畢業
23:03	王康	跨轄區喔
23:03	王康	怎麼會跨轄區
23:23	不明	在我們轄區發生
23:24	不明	嫌疑人跑到中部
23:26	王康	績效不能白白送給中部的！
23:31	不明	也不是
23:31	不明	地區責任制
23:32	不明	你也不可能查到線索給別人辦
23:32	王康	也是
23:33	王康	只是這樣逮到人 是要送哪個地檢
23:33	王康	因為2邊的法院都有管轄權耶
23:34	王康	省的麻煩就近移送嗎
23:35	不明	找新竹地檢指揮或開拘票，或在新竹地院聲搜，就可以送新竹
23:36	王康	還沒通緝嗎
23:36	不明	當初在臺南抓解體工廠，也是送新竹
23:36	不明	對象都不知道咧
23:36	王康	哦 哈哈
23:37	王康	只是開始調查而已
23:37	王康	連地檢那邊都還沒立案
23:40	王康	知道嫌疑人是誰之後 還要先發個通知書請他到案說明嗎
23:48	不明	怎麼可能
23:48	不明	看什麼案子ㄅㄚˋ
23:52	王康	嗯嗯

2015/01/09(週五)
24:01	不明	有些案子得直接抓
24:04	王康	76逕行拘提、87通緝犯、88現行犯、88-1緊急拘捕  直接抓～～～～～
24:04	王康	抓抓～
1:57	不明	報檢察官指揮的話，抓人時一通電話給檢察官，檢察官說ok就抓了，拘票馬上開(後補)
8:04	王康	那就是76逕行拘提
8:05	王康	拘票後補

2015/01/20(週二)
10:30	王康	嘉你跟女友差幾歲啊
10:43	YuJia	3
10:43	王康	80的
10:44	王康	如果女友大4歲你們ok不ok
10:46	王康	嘖 好像有點多齁
11:01	YuJia	哈 沒想過 應該爸媽比較介意
11:24	不明	現在很多姊弟戀

2015/02/03(週二)
20:21	YuJia	康杰把到了嗎
20:22	王康	後來決定單純認識就好
20:22	王康	沒有進一步去約會
20:23	YuJia	[貼圖]
20:24	王康	怎勒
20:24	王康	你要介紹妹給我嗎～好棒哦
20:26	YuJia	[貼圖]
21:21	不明	加減吃啦～幹嘛不把
21:23	王康	我之前在想
21:23	王康	我們在選擇交往對象
21:23	王康	有理想等級跟現實我們能接觸到的等級
21:24	王康	完全看自己願意在距離理想等級多遠的地方妥協 然後去把妹
21:31	王康	簡單說就隨緣 
21:52	不明	恩恩
21:52	不明	真的很多問題
21:54	王康	理想大概從邱慧文開始倒扣
21:57	王康	[圖片]
22:00	王康	如果身邊有這種 然後年紀大我們1～2歲的
22:00	王康	麻煩跟我聯絡 哈哈哈哈
22:43	不明	[貼圖]
22:58	YuJia	[貼圖]
23:39	王康	你們勒
23:39	王康	最近如何
23:39	王康	都跟女友還好嗎
23:52	YuJia	[貼圖]

2015/02/13(週五)
16:46	王康	https://www.youtube.com/watch?v=vaS5yRIP4ms
17:00	王康	竟然直接看內褲
17:01	王康	哈！搞不好都違反社維法了XD
17:42	王康	[圖片]
19:52	YuJia	[貼圖]

2015/02/15(週日)
14:48	王康	你們啥時回高雄
17:17	不明	我後天
18:15	YuJia	今晚或明天
18:15	YuJia	[貼圖]

2015/02/16(週一)
8:50	王康	忘記是哪一年
8:51	王康	我們三個早上打個球 結果一人花了2000塊
8:51	王康	刮刮卡太瘋狂
13:53	YuJia	有那麼多喔
13:54	王康	刮了幾張1000的
13:54	王康	後來換刮麻將的
13:54	王康	最後還買大樂透...
13:55	王康	應該是三個家起來2000
13:55	王康	扣掉有刮中的
14:05	YuJia	[貼圖]
14:15	不明	[貼圖]

2015/02/17(週二)
7:59	王康	嘉你回高雄了喔？
8:00	王康	雞勒
8:00	王康	今天嗎
10:30	不明	恩恩
10:30	不明	剛到
10:30	王康	[貼圖]
11:32	YuJia	到嘍
13:54	王康	計畫約一下約一下啦
14:37	YuJia	機時時回
14:37	YuJia	啥時
15:39	不明	已經到了
15:39	不明	預計初二晚上北上
15:50	王康	好早
15:51	王康	你有帶女友下來嗎
16:14	王康	我隨時都ok
16:14	王康	看你們2個
16:15	王康	要吃飯的話 要快喔 因為提早訂
17:02	YuJia	我爸媽可能不會放人
17:02	YuJia	要初四之後
17:21	不明	這樣GG了
17:22	王康	沒關係啦！

2015/02/18(週三)
18:06	YuJia	[圖片]

2015/02/19(週四)
17:14	YuJia	晚餐大家要出來吃嗎
17:21	王康	我都ok
17:22	王康	甚至晚一點去吃宵夜也ok啊
17:23	王康	看你們囉
17:48	YuJia	吃晚餐吧
17:48	YuJia	康吃什麼
17:58	YuJia	鄧事復呢
17:58	YuJia	[貼圖]
18:04	YuJia	1830 淨豆腐?
18:05	王康	你跟雞約6點半ok
18:05	王康	我會晚點到
18:06	YuJia	還是1845
18:06	YuJia	1900
18:06	王康	1900會不會太晚？
18:06	YuJia	我都可
18:06	王康	Ok
18:07	YuJia	好1900
18:07	不明	1830好了
18:07	不明	如何？
18:07	王康	都ok
18:08	YuJia	好
18:23	王康	 我晚點到
18:23	王康	你們先點

2015/02/20(週五)
9:35	王康	[貼圖]
9:45	YuJia	[貼圖]
10:00	不明	[貼圖]
10:00	王康	[貼圖]
10:00	王康	[貼圖]
11:05	王康	 沒有要出來齁
11:15	不明	現在要去觀音山拜拜
11:15	不明	突然被叫出門
11:15	王康	Okok
11:15	不明	大概１，２點回來
11:16	王康	會塞車哦
12:41	不明	恩，剛剛就有塞
13:16	YuJia	[貼圖]
13:19	王康	[貼圖]
16:56	王康	[貼圖]
17:13	YuJia	[貼圖]

2015/02/21(週六)
12:49	王康	王以雲是單身吧
12:54	王康	機可以考慮一下啊
15:13	不明	算了吧，目前暫時不交
15:13	不明	除非有，很好的
15:14	王康	個性好的
15:14	王康	巨蟹座
15:14	不明	身材也要好阿
15:15	王康	哎額～
15:15	不明	[貼圖]
15:15	王康	最少要基隆人
15:15	不明	？
15:15	王康	C
15:15	不明	幹嘛基隆
15:15	不明	喔
15:15	王康	[圖片]
15:16	王康	可惜台中人還是佔大多數
16:07	YuJia	[貼圖]

2015/02/22(週日)
1:12	王康	還沒玩過怪物彈珠！？一起來玩輕鬆上手樂趣加倍！
http://static.tw.monster-strike.com/invitation/?i=394766067&p=2&f=line

2015/02/23(週一)
19:55	王康	雞 你有沒有聽說我們班女生誰最近跟小錢走很近
19:55	王康	是葉淯竹嗎
20:21	不明	沒內
20:21	不明	小錢很久沒見了
20:21	王康	 我今天去剪頭髮
20:22	王康	老闆娘跟我說 小錢最近跟我們班一個女生走很近 還去看花燈
21:03	YuJia	[貼圖]
21:30	不明	安內

2015/02/25(週三)
22:44	王康	[圖片]
22:44	王康	剛認識的
23:02	YuJia	[貼圖]
23:10	王康	不過年紀大我們一些
23:10	王康	73的

2015/02/26(週四)
8:12	不明	[貼圖]

2015/02/28(週六)
1:01	王康	好了
1:01	王康	我拿到line了
1:36	王康	[圖片]
1:37	王康	有點像劉尹心
8:55	王康	輕熟女
8:55	王康	[圖片]
8:55	王康	[圖片]
10:01	YuJia	[貼圖]
11:50	不明	[貼圖]

2015/03/27(週五)
10:40	王康	󾇔小時候
10:41	王康	[圖片]
10:59	YuJia	國中?
11:00	王康	對
11:12	YuJia	有我的嗎
11:12	YuJia	[貼圖]
11:13	王康	我連我自己的都沒有
11:13	王康	只有一張他的
11:13	不明	這啥時的阿
11:14	不明	我有你們的啦
11:18	王康	國中的啊
11:18	王康	這是你在黃思綺家頂樓烤肉拍的
11:52	不明	都忘了
12:35	YuJia	梁喬維  船幾張來瞧瞧
12:53	王康	幹 我國中時候好胖

2015/03/28(週六)
14:32	YuJia	我的照片呢(hmph)
14:33	不明	在高雄

2015/04/02(週四)
15:28	王康	󾇔你要調外交部了喔
17:04	不明	沒啦
17:04	不明	怎麼可能

2015/04/03(週五)
16:03	王康	您二位尊駕有要回高雄嗎
16:10	YuJia	NO QQ
16:10	王康	已Q
16:17	不明	沒內
16:17	王康	[貼圖]
16:17	不明	下週才回去，爺爺對年要辦法事
16:17	王康	嗯嗯

2015/04/22(週三)
17:18	王康	https://fbcdn-video-k-a.akamaihd.net/hvideo-ak-xft1/v/t42.1790-2/11038020_842505529120132_1618818277_n.mp4?efg=eyJ2ZW5jb2RlX3RhZyI6ImxlZ2FjeV9zZCJ9&oh=1b4fe668d0229339593c0f23c4705f2a&oe=553768A8&__gda__=1429695611_f3e983341dc0e864992779c1ebebc8b1
17:18	王康	這超好笑
17:18	王康	小時候不讀書長大嚴雅倫
17:18	王康	[貼圖]
18:50	YuJia	這有看到
22:34	不明	[貼圖]

2015/05/08(週五)
16:08	王康	Ru China Chen是誰啊
16:08	王康	大頭貼乍看之下還不錯

2015/05/09(週六)
11:23	不明	噗
11:23	不明	那個有男友了阿
11:23	不明	之前人家介紹認識的
11:51	王康	太沒誠意了 誰介紹的 有女友的還介紹
11:51	王康	哈

2015/05/12(週二)
20:06	王康	你們2個最近還好吧
20:27	YuJia	[貼圖]
20:45	不明	[貼圖]
20:45	不明	要考試了
20:45	王康	[貼圖]
20:48	不明	剩11天
20:48	王康	加油
20:48	王康	剩3個月
22:25	YuJia	[貼圖]

2015/05/13(週三)
4:34	不明	[貼圖]
13:43	不明	郵票算有價證券嗎？
13:44	王康	算
13:44	不明	嗯嗯
13:44	王康	有價證券抓住3個特性 財產 流通 占有
13:45	不明	那車票 船票之類呢
13:46	王康	也算
13:46	王康	電影票不算
13:47	不明	嗯嗯
13:47	不明	[貼圖]
13:58	不明	沒中彩卷改成中獎 是偽造還變造？
13:59	王康	偽造
14:05	不明	是哦
14:05	不明	沒有影印剪貼還是偽造嗎？
14:05	不明	是因為創設性？

2015/05/23(週六)
11:03	王康	https://m.youtube.com/watch?v=GWy8XNB2SEQ

2015/05/26(週二)
9:20	王康	雞覺得自己有希望嗎
9:21	王康	還有上面影片蠻好笑的 你們都未讀...󾌺
9:35	不明	唉
9:35	不明	考不好
10:54	YuJia	[貼圖]
10:57	YuJia	確定沒希望嗎
11:04	不明	很危險
11:58	王康	沒問題的啦
11:59	王康	突然覺得雞有點像修傑楷
11:59	王康	修傑楷的爸爸也是調查局的
11:59	王康	跟我爸同期
12:00	王康	叫修勤和
12:00	王康	不知道哪個字
13:14	不明	[貼圖]

2015/05/27(週三)
11:17	YuJia	[貼圖]

2015/06/03(週三)
20:17	王康	2位最近如何啊
20:18	王康	昱嘉要畢業了嗎
20:18	王康	雞考的如何
20:33	不明	不太好
20:33	不明	盡人事聽天命了
20:34	王康	刑法刑訴asking me就妥當了
20:34	王康	[貼圖]

2015/06/04(週四)
10:10	YuJia	幾還要考嗎
11:37	不明	再考慮吧…

2015/06/05(週五)
17:46	王康	搞不好上了勒

2015/06/06(週六)
24:22	不明	最好齁
6:43	王康	嘉 你這個月畢業嗎
11:55	YuJia	暑假吧
11:56	YuJia	或9月
12:00	王康	[貼圖]

2015/06/09(週二)
7:32	王康	[影片]
7:32	王康	[圖片]
7:32	王康	這是～誰
12:23	YuJia	[貼圖]

2015/06/10(週三)
21:35	王康	https://tw.bid.yahoo.com/item/%E4%B8%89%E6%9C%A8%E5%85%88%E7%94%9F-%E5%A4%AA%E7%A9%BA%E6%A3%89%E5%BE%AE%E5%AF%AC%E9%AC%86%E7%99%BE%E6%90%AD7%E5%88%86%E8%A4%B2-2%E8%89%B2-100072670184
21:36	王康	黑還是白好看

2015/06/11(週四)
12:04	YuJia	黑
12:54	王康	嗯！好像是哦

2015/06/12(週五)
13:07	王康	https://vid.me/8eX0
13:07	王康	Lbj 露屌...
15:16	YuJia	不怎民顯

2015/06/14(週日)
12:39	不明邀請喬－備用加入群組
12:41	喬－備用加入聊天
12:49	Ed離開聊天
13:24	不明邀請喬加入群組
13:26	喬加入聊天
13:30	喬－備用離開聊天

2015/06/24(週三)
19:52	王康	您二位最近怎樣
19:52	王康	雞交到女友沒
19:53	王康	警特成績出來了嗎
20:42	喬	沒啊
20:42	喬	還在打槍
20:42	喬	我沒考警特內
20:42	喬	我考警大二技
21:01	王康	喔喔
21:01	王康	昱嘉勒
21:01	YuJia	？

2015/06/28(週日)
20:59	王康	󾇔
20:59	王康	我請問一下
21:00	王康	你們平常發通知單請人來說明 會權利告知嗎
21:00	王康	沒有被逮捕的喔 就是單純通知來的
21:01	喬	詢問人別身份是嫌疑人？
21:02	王康	嫌疑人 跟 關係人
21:02	喬	嫌疑人會，關係人不會
21:04	王康	那如果是證人身分勒 做筆錄的時候要告知有拒絕證言權嗎
21:04	喬	沒有
21:04	王康	Okok那我瞭解了
21:04	喬	因為沒有具詰
21:04	王康	我知道
21:13	王康	謝啦
21:15	喬	[貼圖]

2015/07/06(週一)
16:41	王康	[影片]

2015/07/30(週四)
17:00	王康	[貼圖]

2015/08/01(週六)
13:21	YuJia	[貼圖]
13:21	喬	[貼圖]
13:21	王康	[貼圖]

2015/08/04(週二)
10:32	YuJia	[貼圖]
11:04	王康	[貼圖]
12:21	喬	[貼圖]
12:22	喬	康杰生日快樂
13:33	王康	謝謝啦
13:33	王康	你們二老最近怎樣
13:37	王康	雞什麼時候調回高雄
15:55	喬	今年我應該不會調
15:55	喬	明年看看
15:55	王康	[貼圖]

2015/08/09(週日)
7:12	王康	你們2位颱風還好吧
13:56	YuJia	[貼圖]
13:56	YuJia	高雄呢
13:56	YuJia	其實新竹還好
13:56	喬	嗯嗯
13:57	喬	新竹沒什麼事
14:16	王康	嗯嗯！
14:16	喬	高雄怎麼樣？
14:17	王康	市區應該都還好
14:17	王康	路樹倒很多

2015/08/13(週四)
10:22	王康	雞 我請問你一下
10:23	王康	你們除了要開始警詢之前 有權利告知之外，一逮到人的時候 也會權利告知嗎
10:23	喬	規定要
10:23	王康	Okok
10:23	喬	實務上…BJ4
10:24	王康	哈
10:24	王康	實務上 「拳力」告知
10:31	王康	你們最近都不會回高雄嗎
10:31	王康	我這禮拜考完 找一天去新竹找你們
11:09	喬	[貼圖]
11:10	喬	我２３左右會回
11:10	王康	嘉勒
11:47	YuJia	我22會回
11:48	喬	安內
22:18	王康	[貼圖]
22:19	王康	哎唷 ！那搞不好可以一起坐車上去喔
22:19	王康	如果你們都有要回來的話

2015/08/14(週五)
24:27	YuJia	哈。看看嘍

2015/08/19(週三)
9:10	王康	嘉 你這禮拜回來 幾號回新竹
9:13	王康	時間OK的話 一起坐車上去
10:26	YuJia	上去?
10:26	王康	你總要回新竹吧
10:26	YuJia	我很不確定耶  要問我爸  週日或週一
10:28	王康	嗯嗯
17:11	王康	ㄟ
17:11	王康	這禮拜有颱風來ㄟ
17:11	王康	你們還回來嗎
17:19	YuJia	明天看看
17:21	王康	嗯嗯
17:33	喬	還在觀望
17:33	喬	[貼圖]

2015/08/22(週六)
11:11	王康	加你今天回來嗎
11:11	王康	嘉
11:11	王康	雞勒
11:16	喬	我今天回
11:17	王康	!!!!!
11:17	王康	你們一起回來嗎
11:56	YuJia	我到了
12:55	王康	有要約嗎
13:30	喬	要去那？
13:59	YuJia	我爸媽可能不會讓我出來
14:02	王康	那只能說遺憾了
14:08	王康	可以出來的話 看晚一點出來喝點飲料坐一下之類的
16:03	YuJia	我爸媽要帶我出去⊙_⊙
16:15	王康	嗯嗯 那雞要不要出來
16:56	喬	我現在跟我爸出來買明天拜拜的東西
16:56	喬	等一下看怎樣
16:59	王康	好

2015/09/08(週二)
5:58	王康	 嘉 生日快樂
11:30	YuJia	[貼圖]
11:30	YuJia	謝啦
11:32	喬	[貼圖]
11:32	喬	生日快樂！！

2015/09/17(週四)
22:58	王康	請問你們有聽過福源花生醬嗎
22:59	喬	有阿
22:59	王康	好吃嗎
23:01	喬	還好
23:01	喬	是蠻有名啦
23:01	喬	我本身沒很愛
23:01	王康	那算了～～～
23:01	喬	這看個人
23:02	王康	嗯嗯
23:03	王康	花生醬怕有黃麴毒素 可是好好粗
23:17	YuJia	沒吃過

2015/09/19(週六)
12:35	王康	在等便當啊～
12:37	喬	對阿
12:38	王康	https://www.facebook.com/man.sue.5?fref=t
12:39	王康	這女生怎麼樣

2015/09/20(週日)
24:24	王康	你什麼時候回去
24:24	王康	回新竹
24:38	喬	應該後天吧
24:39	王康	你要考霹靂小組喔
24:39	王康	幹嘛自主訓練
24:49	喬	沒阿
24:49	喬	練練肌肉
24:49	喬	不然太瘦了
24:49	王康	[圖片]
24:50	王康	我也在練
24:50	喬	安內
24:50	喬	把妹哦
24:50	王康	但是一吃飽線條就會消失
24:51	王康	沒啊 
24:51	王康	最近是有認識貼給你們看那個女生
24:52	王康	感覺還不錯
1:01	喬	不錯阿
9:16	YuJia	[貼圖]
11:15	王康	雞你下午沒事的話 看要不要出來坐一下
14:17	喬	嗯嗯
14:18	喬	現在跟家人在吃飯
14:18	喬	等一下沒事再叩你

2015/09/27(週日)
15:16	YuJia	康要出來嗎
15:19	王康	你們都在嗎
15:19	王康	還是只有你
15:20	王康	我都ok啊
15:20	YuJia	我看看
15:21	王康	已讀2了啦
15:23	YuJia	?
15:23	王康	要出來ok啊
15:24	喬	去那？
15:25	YuJia	都好
15:25	YuJia	喝個涼的嗎
15:26	王康	何時
15:26	YuJia	走!
15:27	王康	現在嗎
15:27	YuJia	[貼圖]
15:27	王康	去哪喝
15:27	YuJia	上次那間嗎
15:27	王康	星巴克嗎？還是多納茲
15:29	喬	上次那間好了
15:29	王康	師大
15:29	王康	那件
15:30	喬	恩
15:34	王康	出門
15:37	YuJia	[貼圖]

2015/09/28(週一)
9:46	王康	ㄟ 你們2個有車票回去吧
12:39	喬	不知道欸
12:39	喬	我明天回去
12:40	王康	強颱影響中部以北
13:41	YuJia	剛到  超多人
14:07	王康	嗯嗯 
14:20	喬	還好你爸有幫你買票
15:25	YuJia	[貼圖]

2015/10/05(週一)
10:30	王康	雞最近還有新認識對象嗎~~~
10:30	喬	沒阿
10:30	喬	怎了
10:31	王康	沒阿 無聊問你而已
10:32	喬	還以為你要介紹…
10:53	王康	我介紹給你可以  但是一定是遠距離 你要嗎
10:54	王康	一個女生 在台中
10:54	王康	就是我上個月剛認識的那個女生
11:11	YuJia	[貼圖]

2015/10/29(週四)
15:30	王康	嘉
15:30	王康	跟鴻海的軟體工程師可以聊啥
15:31	王康	有沒有一些簡單 可以蝦哈啦2句的東西
15:33	喬	我捐兩億
15:33	王康	噗....
15:34	王康	慢一點再捐啦
15:35	王康	看是軟體界比較新潮流行的項目
15:35	王康	我想找個話題開個頭
15:35	王康	快已讀2啊～～～
16:55	YuJia	鴻海喔?
16:55	YuJia	直接問股票能不能買阿
16:55	YuJia	XD
16:56	YuJia	不然你問他們公司有沒有再做大數據
16:58	王康	大數據是跟軟體有關的齁
17:02	YuJia	黑阿
17:06	王康	我問看看部門好了
21:11	王康	 好像也是跟專利雲有關的
21:12	王康	專利雲有啥可以蝦哈啦的啊
21:28	YuJia	不熟耶
21:28	YuJia	[貼圖]
21:28	王康	哈 沒關係啦 大數據湊合著問看看
21:28	王康	謝啦
21:28	王康	哈哈
22:08	王康	欸 有在做大數據耶
22:09	王康	大數據接下去是啥
22:56	YuJia	呃……問他大數據有無法律議題好了

2015/11/04(週三)
10:23	王康	這女生好像是在寫 專利的搜尋引擎之類的東西
10:23	王康	嘉!!!!
10:24	王康	程式人 有什麼可以聊的阿
10:24	王康	[貼圖]
11:56	YuJia	問想不想去外商
11:56	YuJia	[貼圖]
11:58	王康	[貼圖]

2015/11/06(週五)
24:15	王康	欸雞
24:16	王康	快上映的一部警察電影
24:16	王康	感覺很熱血
24:16	王康	好好看
24:16	王康	叫做 菜鳥
24:16	王康	好像下禮拜才上
24:20	喬	是哦
24:20	喬	我再看看預告
24:20	王康	[貼圖]

2015/11/11(週三)
22:58	王康	這裡借我練一下歌 我在找當伴郎要唱的歌
22:58	王康	你們不用點來聽沒關係 好害羞
22:59	王康	[語音訊息]
23:00	王康	[語音訊息]
23:01	王康	啊！我想到了 用秒數自動刪掉的
23:01	王康	這裡還是借我一下好了
23:08	王康	[語音訊息]
23:08	王康	[語音訊息]
23:12	王康	傷害各位聽力 謝謝謝謝

2015/11/12(週四)
24:17	喬	沒關係阿
1:19	YuJia	[貼圖]

2015/11/19(週四)
9:32	王康	嘉你啥時回高雄
9:50	YuJia	不確定耶
9:54	王康	那你兵單來了嗎
10:43	YuJia	12月入伍
10:51	王康	噢 蠻快的
10:52	王康	跟雞回來給你送行一下啊XD

2015/11/20(週五)
6:41	王康	http://www.ettoday.net/dalemon/post/13049
10:44	YuJia	[貼圖]
10:44	喬	[貼圖]
10:44	YuJia	雞啥時回
10:46	喬	下週

2015/11/26(週四)
18:32	王康	唷唷唷
18:32	王康	你們啥時肥來
18:32	王康	我們趁天氣冷去吃火鍋吧
18:39	YuJia	下週不確定啥時
18:41	喬	我這週末回去
18:41	喬	要一起嗎？
18:41	王康	一起一起！！
18:41	王康	[貼圖]
19:04	YuJia	沒法 要下週
19:04	YuJia	[貼圖]
19:06	喬	不然就１２１２那周
19:06	喬	我還會回去
19:11	YuJia	在成功嶺了
19:11	王康	幹 超快
19:11	YuJia	[貼圖]
19:12	王康	你幾號入營
19:18	喬	靠
19:18	喬	太快了吧
19:19	王康	還好啦 我收到兵單格4天就被抓進去了

2015/11/27(週五)
15:06	王康	所以嘉你回高雄2星期就進去了嗎
15:22	YuJia	一星期
15:23	王康	那你回來我們吃個飯好了
15:24	王康	反正你2星期就結訓了
15:26	YuJia	[貼圖]

2015/12/02(週三)
8:44	王康	[圖片]
8:44	王康	[圖片]
8:44	王康	[圖片]
8:44	王康	[圖片]
8:44	王康	[圖片]
8:44	王康	[圖片]
8:44	王康	[圖片]
8:44	王康	[圖片]
8:44	王康	[圖片]
8:44	王康	我朋友貼的 說什麼女警月曆
9:18	喬	對啊

2015/12/03(週四)
8:05	王康	 嘉你幾號進去
8:05	王康	回高雄沒啊
9:03	YuJia	還沒……

2015/12/06(週日)
21:23	王康	嘉你啥時要肥來
21:23	王康	都快被抓進去了你
21:44	YuJia	太多事了
21:44	YuJia	登出再見面吧
21:45	王康	GG
21:45	王康	你都不用聽一下行前教育嗎XD
21:46	王康	還是雞已經幫你上過了
21:46	王康	XD

2015/12/07(週一)
13:55	YuJia	沒有啊 他也沒空 實驗室有剛出來的 有跟我說
14:36	王康	我記得研替好像14天就離開成功嶺了
14:38	王康	帶一盒好一點的喉糖
14:38	王康	舒立效都不錯
14:41	王康	可以帶個2盒 因為你會認識鄰近的同袍
14:46	王康	還有 女朋友的電話要記一下
14:46	YuJia	[貼圖]
14:46	王康	我那時候想說排隊打個電話 結果我根本沒記前女友的電話
14:47	YuJia	現在可帶智慧型手機
14:48	王康	義務役新訓也可以喔？
14:49	YuJia	[貼圖]
14:54	王康	[貼圖]
15:39	喬	要集中保管吧
16:04	YuJia	[貼圖]
16:05	王康	那還是要打公共電話吧
16:35	YuJia	我出來跟你說
16:35	YuJia	[貼圖]

2015/12/30(週三)
17:26	王康	 嘉在哪
17:26	王康	分發到哪裡
23:51	YuJia	我依樣在交大阿
23:53	王康	爽啊

2015/12/31(週四)
24:50	YuJia	[貼圖]
8:23	王康	那你有制服要穿嗎
8:23	王康	還是什麼都不用 只有剃光頭而已
9:54	YuJia	收回去了
23:15	YuJia	祝
    身體棒棒  錢包滿滿 
    好運連連  心情好好 

     󾭩。󾬌。󾍇。󾀼
     。󾔐 。󾔗。󾭩
     󾭠。＼｜／。󾁅
      Happy New Year 
        󾠯 󾠷 󾠮 󾠳
     󾬖。／｜＼。󾠦
     。󾀼。 󾁁。󾔗。
      󾭩。 󾌧。 󾠔 󾬑

2016/01/30(週六)
12:21	王康	你們倆最近還好吧
12:22	王康	嘉服役內容是幹嘛 做研究嗎
12:22	YuJia	[貼圖]
12:22	YuJia	今天是上班日
12:22	王康	嗯嗯
12:23	王康	要穿制服嗎
12:24	喬	A型流感還沒好…好不起來
12:25	王康	冬天感冒不容易好

2016/02/06(週六)
4:15	王康	高雄大地震
4:15	王康	你們家都沒事吧
4:28	喬	沒事
10:02	YuJia	[貼圖]

2016/02/07(週日)
10:43	王康	你們有回家嗎
10:44	王康	我朋友搭高鐵 本來開放道左營
10:44	王康	結果開到台中臨時感大家下車
11:03	YuJia	在家了
11:03	YuJia	[貼圖]
12:28	喬	還在上班……
12:28	喬	[貼圖]

2016/02/08(週一)
22:01	喬	康杰前天跟這麼多妹吃飯，太爽了吧
22:02	王康	高中同學而已

2016/02/09(週二)
8:58	王康	你們有刮刮卡嗎
10:21	王康	我們今年有要約出來嗎
12:00	喬	可以阿
12:00	喬	可是我明天才放假
12:02	王康	單利啦~
23:00	YuJia	明天下午出來嗎
23:33	王康	基明天太趕了吧
23:33	喬	我夜車回去
23:33	王康	阿你回家總要安大一下吧
23:34	王康	後天好了
23:38	喬	嗯

2016/02/10(週三)
19:16	YuJia	明天早上嗎
19:22	喬	打球阿
19:23	王康	我不敢答應XDDD 3年沒碰過籃球了
19:31	喬	不會啦 投投籃
19:31	喬	我也半年多沒碰了
19:35	王康	你們打
19:36	王康	我不喜歡輸的感覺XDD
19:36	喬	投籃就好不用play阿
19:36	喬	哈
19:47	王康	恩...單純投球我OK
21:22	YuJia	8點幾極館?
21:35	喬	可阿
21:42	王康	我只能說 明天天氣回暖 一定塞爆
21:50	喬	去看看吧~
21:50	喬	順便吃早餐阿

2016/02/11(週四)
24:44	喬	８點技擊館喔
7:23	王康	你們有球嗎
7:30	YuJia	[貼圖]
7:30	王康	[貼圖]
7:30	喬	我有 但不知道還有無氣
7:31	喬	 要去倉庫看
7:31	王康	我有但是確定沒氣 而且很久沒打滑滑的
7:35	喬	那我帶我的好了
7:36	王康	有氣嗎
7:36	喬	還沒下去看
7:36	喬	但是新的
8:23	YuJia	最裡面
16:15	王康	 接下來要約啥
16:16	王康	因為外面人很多 要幹嘛能預定先預訂
16:19	YuJia	今天晚上翹尾可以嗎
16:25	王康	我只記得今天雞停好車 剛下車的時候 引人側目
16:25	王康	可惜是在早餐店
16:26	喬	沒吧…哪有這麼誇張
16:26	王康	如果在年輕人多一點的地方 雞的費洛蒙指數爆表
16:26	王康	剛好就被我看到 3~4個男的在看
16:59	王康	so~
17:00	王康	when  where  what
17:10	YuJia	明天?
17:12	王康	OK
22:51	王康	明天要幹嘛
22:52	王康	吃 要吃啥？人很多要訂位的！
22:53	王康	還是甚麼刮刮卡大車拼
22:53	王康	[貼圖]

2016/02/12(週五)
1:19	YuJia	看有無下雨?
1:25	YuJia	我中午可
1:25	YuJia	康?
1:26	喬	看要吃啥
1:26	喬	不一定要大餐廳
6:38	王康	看有無下雨
6:44	王康	高雄。港仔大佬之創意港式小品，間具有個性風格的港式主題餐廳
http://ifoodie.tw/blog/53e4e04281eb99000000001e

- 分享自愛食記 http://bit.ly/tpeBlog
6:46	王康	泰山汕頭火鍋│扁魚湯頭香醇濃厚，食材品質不錯，短期內想再去吃！（食尚玩家推薦）
http://ifoodie.tw/blog/56692ee56320634d37947d8c

- 分享自愛食記 http://bit.ly/tpeBlog
9:32	YuJia	晚上也可以了
10:55	YuJia	火鍋可
10:57	喬	你訂看看
11:05	YuJia	晚上嗎
11:05	YuJia	你們都可吼
11:06	王康	現在已經中午啦 約晚上吧
11:06	王康	要吃啥
11:06	喬	都可
11:09	YuJia	我訂火鍋喔
11:10	王康	泰山那間喔？
11:10	YuJia	[貼圖]
11:10	王康	我都ok
11:36	YuJia	1830訂露
18:34	王康	2位大德
18:35	王康	昱嘉定位用誰的名字

2016/02/13(週六)
15:11	YuJia	今明還有要出來嗎
15:13	王康	看你們啊
15:13	王康	死侍嗎
15:29	王康	4dx椅子會晃
15:46	喬	我晚上要去看欸
15:46	喬	跟我表哥
15:46	喬	訂好票了
15:47	喬	過年都要訂票  不然沒辦法看
16:00	王康	Gg
22:30	喬	明天早上打球嗎？
23:11	王康	今天情人節耶
23:33	王康	我再練一下 現在太廢連球都投不准

2016/02/14(週日)
24:12	喬	就投投籃阿
7:13	王康	有要打嗎
7:27	YuJia	[貼圖]
7:33	王康	雞勒
7:34	喬	[貼圖]
7:41	王康	那出發吧
12:19	喬	欸
12:19	喬	臉書不要講那些  
12:19	喬	八字沒一撇
12:19	喬	別破壞暗盤
12:20	喬	我也刪文了哦
12:35	YuJia	[貼圖]
12:39	喬	沒拉  康在我臉書留言說剛剛那個女的
13:14	王康	 喔喔
13:14	王康	抱歉抱歉
13:38	王康	󾇔󾇔sorry
13:38	王康	[貼圖]
13:42	喬	沒關係啦
13:44	YuJia	有要來我家打牌嗎
14:11	王康	啥時候
14:11	王康	我們缺一咖欸
14:11	王康	3人而已
14:12	喬	嘉要找你去他家打
14:13	王康	我ok
14:15	喬	安內
14:15	喬	他說打１００、５０
14:23	王康	缺一咖啊
14:24	喬	他姐
14:26	王康	50 100大概要帶多少出門
14:28	王康	我先眯一下 看怎樣再敲我
14:33	喬	帶個一兩千吧
14:38	YuJia	1.2000夠嗎
14:38	YuJia	還是去康家拜年
14:38	YuJia	我家也可
14:39	王康	我爸媽哥嫂都在
14:43	YuJia	喔喔
14:44	YuJia	撲克牌?
14:45	王康	乾脆集資刮刮卡大賽
14:45	喬	刮刮樂穩輸別玩了
14:46	王康	[貼圖]
14:48	王康	唱歌？
14:55	喬	叫妹嗎
14:55	YuJia	[貼圖]
14:56	王康	哪來妹
14:56	王康	我異性緣不好
14:59	王康	幾有妹可以約嗎
15:00	喬	我也沒…
15:00	喬	可能要去球場搭訕
15:00	王康	[貼圖]
15:04	喬	康要過去嘉家嗎
15:04	王康	好啊
15:05	王康	啥時
15:06	YuJia	幹 桌子是長方形的
15:07	王康	還是要去幾家
15:08	喬	出發了
15:08	喬	看你們
15:08	王康	夠
15:09	喬	嘉家見
15:09	王康	我只待2000夠吧
15:09	喬	夠啦~我也差不多而已
15:20	YuJia	欸欸
15:20	YuJia	紙都發霉了
21:11	王康	謝謝你們 今年過年讓我們3個老相識一起鬼混
21:11	王康	[貼圖]
21:12	YuJia	[貼圖]
22:06	YuJia	每年都要與老朋友相聚  這是一種約定  哈哈
23:16	喬	[貼圖]
23:17	喬	嘉明天幾點的車
23:22	YuJia	[貼圖]
23:22	YuJia	2.3
23:33	喬	嗯嗯

2016/02/15(週一)
11:18	喬	不是說要看張惠如
11:18	喬	都忘了
11:18	王康	噗...
11:20	王康	她應該老很多
11:21	王康	她是5年級嗎？
11:35	喬	阿災
11:39	王康	但我覺得她只有B
11:48	喬	應該差不多
12:38	YuJia	e04
12:38	YuJia	越來越重口味了XD
12:59	王康	這裡口味吃最重的就你了
13:00	王康	還講別人XDDDD 
13:09	喬	沒錯
13:44	YuJia	我說年齡啦
21:09	王康	雞 憶婷沒有主動敲你喔
21:09	王康	[貼圖]
21:29	喬	…
21:29	喬	麥哥逸庭了
21:30	王康	賀啦直接砍掉
22:05	YuJia	易停

2016/02/17(週三)
16:59	YuJia	[圖片]
16:59	YuJia	張惠茹來了
16:59	王康	麥騙

2016/02/21(週日)
14:10	王康	[圖片]
14:10	王康	紅色那位你們覺得如何
14:30	喬	還可以
14:30	喬	你要把喔？
14:30	王康	沒
14:31	喬	不然是哪來的
14:31	王康	朋友的朋友
14:53	王康	在考慮要不要認識

2016/02/23(週二)
8:39	王康	[圖片]
8:39	王康	身材還ok
8:40	王康	加了fb 有聊了一下
8:41	王康	等我3/5考完研究所 約出來看看
8:41	王康	好A喔好A喔
8:41	王康	也是護士 在長庚的 77
10:28	喬	安內
10:29	喬	考研究所幹嘛？
10:31	王康	刑法組刑法 刑訴 調查局也有考  想說都有在唸 就去考一下
10:52	喬	喔喔

2016/02/27(週六)
12:01	喬	我們國中有建立LINE群組嗎？
12:01	王康	沒有
12:02	喬	我來弄一下好了
15:15	王康	我最近運球好很多了
15:16	王康	從過完年之後每天下午都會去練運球
15:17	王康	下次我們再約打球 我就不會是拖油瓶了
15:17	喬	[貼圖]
15:51	YuJia	[貼圖]

2016/03/17(週四)
9:10	王康	雞生日有幹嘛嗎
9:11	王康	啊你之前打球認識的老6有找你嗎
9:44	喬	沒欸
9:44	喬	生日就同事幫我慶生ㄚ
9:44	王康	 嗯嗯
9:45	王康	不錯啦

2016/04/03(週日)
10:02	王康	你們有回來嗎
10:02	王康	打球啦
10:18	王康	[圖片]
10:18	王康	[圖片]
10:18	王康	[圖片]
10:19	王康	我當叔叔啦！
11:04	喬	[貼圖]
11:11	YuJia	[貼圖]
