﻿[LINE] 與Bruce Tsai,李昭德,沈士閔,林佑翼的聊天記錄
儲存日期：2016/06/24 17:44

2016/06/15(週三)
21:15	YuJia邀請Bruce Tsai,李昭德,Lin,沈士閔加入群組
21:15	YuJia	[貼圖]

2016/06/16(週四)
7:48	Bruce Tsai	http://www.moeasmea.gov.tw/dl.asp?filename=64191011871.pdf
14:33	李昭德	海外參訪好像名額有限 而且部分自費 @@
14:40	Bruce Tsai	多部分
14:42	李昭德	還在討論 公費確定就參展門票
18:41	李昭德	不過 有說一般型計畫弄一段時間 成熟後也歡迎申請補助型

2016/06/17(週五)
16:54	林佑翼	剛結束sbir  問了一下發現今年大概有30多家廠商要申請 
16:59	Bruce Tsai	Good job
16:59	Bruce Tsai	他們知道你是誰嗎
17:20	林佑翼	我說蒙地卡羅的時候
工作人員有說我知道這間公司
17:20	Bruce Tsai	[貼圖]
17:21	Bruce Tsai	禮拜一期待你的分享
17:27	林佑翼	okok

2016/06/18(週六)
12:50	李昭德	轉寄2封資策會的信到各位mail。。。新加坡自費3萬 有點鳥
12:51	李昭德	[圖片]
13:02	沈士閔	[貼圖]
20:38	Bruce Tsai	http://m.cnyes.com/news/id/2037426?utm_campaign=2037426&utm_medium=ios&utm_source=App
23:18	Bruce Tsai	Dear all
23:18	Bruce Tsai	Fugle 說禮拜二晚上可去找他們
23:18	Bruce Tsai	Ok的回一聲
23:26	沈士閔	一聲
23:26	Bruce Tsai	二聲
23:26	林佑翼	三聲

2016/06/19(週日)
23:37	YuJia	https://www.uanalyze.com.tw/pages/news/news_all.html

2016/06/20(週一)
17:19	李昭德	[圖片]
18:46	沈士閔	我晚三十分到
19:16	Bruce Tsai	今晚我有事 不過去了 
19:16	Bruce Tsai	Damon 我待會打給你看籌碼有沒有什麼問題
19:17	林佑翼	有人到了嗎
19:23	Bruce Tsai	http://technews.tw/2016/06/19/kyper-data-taiwan/
19:23	Bruce Tsai	Lin 麻煩你等一下 Damon 30分到
19:24	林佑翼	okok 沒問題
19:43	沈士閔	到了 你在哪
20:38	Bruce Tsai	台北市中正區南陽街15-5號4樓
20:38	Bruce Tsai	約六點你們可以嗎 ?
20:39	Bruce Tsai	跟fugle 晚餐
20:39	Bruce Tsai	群組通話已開始。
20:40	Bruce Tsai	群組通話已結束。
20:43	沈士閔	我ok
20:43	Bruce Tsai	alan 到了嗎
20:47	Bruce Tsai	那一樓有個百味坊 就在那邊碰面

2016/06/21(週二)
10:11	Bruce Tsai	[圖片]
11:15	YuJia	6/30 16:00  SBIR要來辦公室
11:16	YuJia	UE Damon 可來嗎?
11:16	林佑翼	OK 我可以
11:20	YuJia	[貼圖]
11:42	沈士閔	Ok
16:59	沈士閔	Ue 你到了嗎
16:59	林佑翼	剛到 要先幫買票嗎
17:00	沈士閔	買 豪太
17:00	林佑翼	ok
18:08	Bruce Tsai	你們大概多久到

2016/06/22(週三)
19:28	李昭德	到樓
19:32	沈士閔	Ue有鑰匙可以進去嗎 我要處理學校的事可能要八點
19:32	林佑翼	有喔 我已經進來了

2016/06/23(週四)
12:22	林佑翼	跟各位報告一下，今天早上有打電話去sbir諮詢補助類別，有兩大項分別是"創新服務"，"創新技術"兩個項目今年都可以做申請，他們表示"創新服務"較著重商業模式，而另一個類別"創新技術"則較著重技術開發，但是也不能只有寫技術的部分，還是要有商業模式像是如何產生營收。而創新技術中包含兩個項目"創新應用"和"創新研發"只是在補充說明"創新技術"並不是參加項目
13:12	YuJia	"創新技術"並不是參加項目-->?
13:40	林佑翼	sorry 最後一句是創新研發並不是參加項目
13:40	林佑翼	打錯
14:06	YuJia	[圖片]
14:06	YuJia	主動通知了
14:09	林佑翼	我沒收到耶 我昨天也有查2330
14:30	YuJia	恭喜技術長沈士閔的論文題目換成股票大數據了
14:34	林佑翼	[貼圖]
16:11	李昭德	[貼圖]

2016/06/24(週五)
9:35	李昭德	嗨 UE今天會去嗎？
9:35	李昭德	資策會若蘭找~
9:36	李昭德	手機是?
10:25	林佑翼	有啊
10:25	林佑翼	我正在現場
10:26	林佑翼	0919190394
10:26	林佑翼	剛自我介紹了
10:34	林佑翼	[圖片]
10:34	林佑翼	[圖片]
11:19	李昭德	哈哈 good job!
14:35	Bruce Tsai	https://www.facebook.com/hihedge.tw/
