﻿[LINE] 與喬的聊天記錄
儲存日期：2016/06/24 17:46

2016/01/04(週一)
11:22	喬	明晚

2016/01/05(週二)
18:34	YuJia	吃幾點
19:07	喬	２２３０？
20:04	YuJia	2230
20:04	YuJia	再晚不能喔
20:04	喬	想吃啥
20:05	YuJia	近點
20:05	喬	喔喔
20:05	YuJia	薑母鴨
22:28	YuJia	?
22:28	YuJia	吃啥
22:28	喬	剛到
22:28	喬	你想吃啥
22:29	YuJia	獎母鴨?
22:29	喬	不要薑母鴨 太燥
22:29	YuJia	那還有啥
22:31	喬	清夜而已吧
22:31	YuJia	哪家
22:31	喬	關東橋哪裡也只有炸的 跟滷味 豆漿
22:38	YuJia	所以?
22:38	YuJia	哪家
22:40	喬	三顧茅廬？
22:40	YuJia	你要內用?
22:41	喬	你要外帶嗎？
22:41	YuJia	外帶好了
22:43	喬	0.0
22:43	YuJia	走吧
22:43	喬	找我吃宵夜不是要內用喔…
22:43	YuJia	好啦 都可
22:43	YuJia	GOGO
22:43	喬	哪裡等
22:44	YuJia	清新
22:44	喬	嗯
22:52	喬	到了

2016/01/09(週六)
13:31	YuJia	[圖片]
14:15	喬	[貼圖]

2016/01/11(週一)
19:18	YuJia	通話時間 1:57
19:29	YuJia	欸欸 有事 明天看好了
20:57	喬	喔
21:17	YuJia	要吃東西嗎
21:17	YuJia	0930 1000
21:37	YuJia	算了  先去吃
22:13	YuJia	[貼圖]
22:23	喬	手機都不接…
22:26	YuJia	騎車
22:26	YuJia	怎
22:28	喬	沒事了
22:28	喬	剛剛來得及看電影
22:28	喬	現在來不及了
22:29	YuJia	我 我還沒吃飯
22:29	YuJia	也不行
22:45	喬	嗯
22:57	喬	明天有沒有要看
22:57	喬	確定一下
22:57	YuJia	可以
22:58	YuJia	我20:00之後可

2016/01/12(週二)
14:44	YuJia	欸
14:44	YuJia	2020
14:44	YuJia	大遠百
14:45	喬	嗯
14:45	YuJia	我只能這場
14:45	YuJia	看要不要
15:15	喬	可阿
19:24	YuJia	欸
19:24	YuJia	確定吼
19:24	YuJia	等等我買票喔
19:24	喬	嗯
19:25	喬	我的卡比較便宜吧
19:39	YuJia	所以你買嗎
19:39	YuJia	應該都6
19:40	喬	我買好了
19:40	YuJia	[貼圖]
19:40	喬	你在那
19:40	YuJia	附近吃飯
19:40	喬	嗯嗯
19:41	喬	有啥吃的可買
19:44	YuJia	……
19:58	喬	不用了
20:10	YuJia	買了嗎
20:15	喬	還在排
20:17	YuJia	廁所中

2016/01/13(週三)
22:03	YuJia	啥時放
22:27	喬	日

2016/01/15(週五)
19:48	YuJia	上到幾點
21:16	喬	下班了

2016/01/16(週六)
11:21	YuJia	今天上幾點
11:22	喬	１０～１８ ，０４～０８
12:50	YuJia	-1800有活動嗎
12:50	YuJia	吃飯?打球?
12:52	喬	好久沒打了
13:02	YuJia	看你
15:28	喬	１８００打球？
18:20	喬	明天下午再打球

2016/01/17(週日)
18:46	YuJia	欸
18:46	YuJia	明天有放嗎
18:49	喬	沒

2016/01/18(週一)
12:02	YuJia	啥時放
12:02	喬	２３～２５
12:03	喬	回高雄
12:06	YuJia	[貼圖]
12:34	YuJia	看要不要找天吃火鍋
12:52	喬	嗯嗯
13:14	YuJia	[圖片]
13:25	喬	幹嘛性騷擾狗
15:35	YuJia	上幾點
15:43	喬	１２～２４
16:05	YuJia	[貼圖]

2016/01/21(週四)
15:23	YuJia	[圖片]
15:24	喬	無言
15:24	喬	上次他也有傳訊息給我
15:24	YuJia	[圖片]
15:26	喬	ㄏㄏ
15:26	喬	不用查也知道
15:26	YuJia	跟他說我只在乎硬度係數和持久度
15:41	喬	[貼圖]

2016/01/23(週六)
21:20	YuJia	高雄冷嗎
21:39	喬	冷喔
21:39	喬	跟新竹有得拼
21:55	YuJia	[貼圖]
22:47	喬	要回來喔？
22:48	YuJia	[貼圖]

2016/01/24(週日)
16:46	YuJia	下冰雹了
16:52	喬	新竹？
16:53	YuJia	[貼圖]
16:54	喬	有聽說
20:48	YuJia	啥時回
20:50	喬	明晚

2016/01/26(週二)
12:49	YuJia	在哪
13:11	喬	公司
13:22	YuJia	啥時放
13:48	喬	剛回來
13:48	喬	第一天上班
13:52	YuJia	[圖片]
13:52	喬	…………
13:52	喬	也太細了
13:52	喬	當按摩棒嗎？
13:55	YuJia	你買給我

2016/01/27(週三)
22:38	YuJia	你症狀是啥
22:39	喬	發燒 全身痠痛無力 喉嚨痛 咳嗽 沒食慾 
22:39	喬	你也中嗎？
22:40	喬	長時間高燒比較有可能
22:40	喬	我昨天看了一次醫生，吃藥後發燒反反覆覆
22:40	喬	覺得是流感
22:40	喬	所以今天再去一次
22:40	喬	篩檢就中了
22:54	YuJia	[貼圖]

2016/01/30(週六)
8:36	YuJia	啥時放
8:38	喬	過年了
8:46	喬	初三開始  至少到初六，績效好還可以往後延
11:44	YuJia	上幾點
11:51	喬	怎了
11:51	喬	我A型流感還沒好…你要跟我見面？
11:51	YuJia	[貼圖]

2016/01/31(週日)
19:21	YuJia	好了嗎
19:47	喬	還沒全好
19:49	YuJia	[貼圖]
19:50	喬	A型流感很恐怖的…
19:50	喬	H1N1
19:50	YuJia	可請假?
19:51	喬	我不用請  調假就好

2016/02/01(週一)
22:03	YuJia	[貼圖]

2016/02/02(週二)
12:01	YuJia	234有無節目
12:01	YuJia	週五回高雄
12:05	喬	安內
12:06	喬	看我排什麼班吧
12:06	喬	我要初三才放假了
12:21	YuJia	[貼圖]
12:21	YuJia	[貼圖]

2016/02/03(週三)
20:08	YuJia	上幾點的
20:48	喬	到２２

2016/02/05(週五)
13:09	YuJia	[圖片]
13:09	YuJia	[位置訊息] 813台灣高雄市左營區高鐵路105號 : http://maps.google.com/maps?f=q&q=22.687374,120.308158&spn=0.029488,0.083942&z=14
13:12	喬	[貼圖]

2016/02/06(週六)
19:32	YuJia	欸
19:32	YuJia	你會不會無法搭高鐵
19:32	喬	不知道欸
23:48	YuJia	周三回?
23:48	YuJia	放到周六?
23:50	喬	應該放到星期一

2016/02/07(週日)
24:09	YuJia	喔喔  我應該六或日回
24:23	喬	是喔
24:24	喬	了解
10:33	YuJia	[圖片]
10:36	喬	要去搶銀行嗎
10:36	喬	[貼圖]
11:08	YuJia	等你買呱呱樂
11:24	喬	[貼圖]
19:32	YuJia	欸
19:32	YuJia	你家幾年房
19:41	喬	高二買的
19:43	喬	大概１０年
19:45	YuJia	不是 蓋多久
19:46	喬	就一樣阿
19:47	喬	蓋了就買了
20:10	YuJia	[貼圖]

2016/02/08(週一)
10:15	YuJia	[圖片]
10:24	喬	[貼圖]
11:24	YuJia	[貼圖]
12:09	YuJia	欸
12:09	YuJia	你是後天晚上嗎
12:25	喬	明晚或後天早上吧
12:26	YuJia	後天打
12:26	YuJia	[貼圖]
12:26	喬	好哦
12:26	喬	超久沒打
12:26	YuJia	(me) 
14:41	YuJia	幹 有夠無聊
15:00	喬	真的
15:00	喬	找康杰
15:00	喬	哈
15:59	YuJia	[貼圖]
16:01	喬	[貼圖]
16:50	YuJia	[圖片]
16:57	喬	真有這麼無聊喔
16:57	喬	你自己去？
17:01	YuJia	[貼圖]
23:23	YuJia	欸 要不要找張惠如
23:32	喬	好喔

2016/02/09(週二)
19:39	YuJia	[貼圖]
19:39	YuJia	幾時回
19:40	喬	今晚開夜車回去
19:40	喬	我爸媽去臺北順路載我
19:49	YuJia	[貼圖]
20:50	YuJia	明天要出來嗎
21:48	喬	好啊
21:50	YuJia	打?
22:18	喬	可以阿
22:18	喬	但可能要晚點
22:19	YuJia	大概?
22:23	喬	我１２點開夜車回去
22:23	喬	到高雄應該最快３點
22:24	喬	八點或九點吧
22:26	YuJia	好啊  約哪
22:28	喬	九點好了
22:28	喬	技擊館？
22:28	喬	有要找康嗎
22:45	YuJia	欸
22:45	YuJia	可在我嗎
22:45	喬	應該可吧…
22:46	喬	還不確定
22:46	喬	你沒車?
22:46	YuJia	9點喔  還是下午
22:46	喬	下午你能幾點
22:46	YuJia	3-600
22:47	喬	要找康媽
22:47	喬	嗎
22:48	YuJia	看你
22:48	YuJia	要找康就聊天
22:59	喬	不打喔？
22:59	YuJia	我可
22:59	YuJia	康應不想打吧
23:00	喬	不然你問問

2016/02/10(週三)
24:32	YuJia	So?
1:12	喬	不然明天下午看看
1:16	YuJia	[貼圖]
1:16	YuJia	或是找我媽聊天
3:19	喬	我家明天下午五點要去吃飯
9:20	YuJia	[貼圖]
9:30	YuJia	所以?
9:30	YuJia	約明天?
9:45	喬	嗯嗯
10:31	YuJia	明早嗎
10:34	喬	好啊
10:34	YuJia	下午出來呱呱
10:35	YuJia	樂
10:57	喬	[貼圖]
12:07	YuJia	欸。我在國賓
12:08	喬	安內
12:08	喬	吃這麼好
12:08	YuJia	還是去找葉遇竹
12:08	喬	他現在在賣衣服喔
12:08	喬	不是賣鞋
12:08	YuJia	都可
12:09	YuJia	只是想出去晃晃
12:09	YuJia	[貼圖]
12:29	喬	喔喔
12:29	喬	都可阿
12:31	YuJia	你幾點可
12:32	喬	都可阿
12:32	喬	晚餐要回來而已
12:32	喬	你吃飽了?
12:32	YuJia	你午餐吃好了?
12:32	喬	嗯
12:33	YuJia	1330 1400吧
12:34	喬	嗯
12:34	YuJia	你有車?
12:37	YuJia	要去逛街 我就找我姊和我媽
12:38	喬	有啊
12:38	喬	可是我1630要回到家
12:39	YuJia	可啊
12:39	YuJia	還是我們出去晃晃就好
12:39	YuJia	改天比較多時間再找我媽
12:40	喬	喔喔
12:41	喬	都可
12:41	YuJia	欸 我叫我爸等等載我去你家?
13:03	喬	也可阿
13:04	YuJia	欸 要回家拿錢包
13:04	YuJia	等等見
13:04	喬	嗯
13:05	YuJia	那等等來我家載
13:09	喬	[貼圖]
13:10	YuJia	[貼圖]
13:40	YuJia	可準備了
13:42	喬	阿要去那
13:42	喬	你家有麻將嗎
13:45	YuJia	通話時間 1:59
14:02	YuJia	98
14:07	YuJia	[貼圖]
14:15	YuJia	通話時間 3:19
14:43	喬	通話時間 0:06
19:22	喬	通話時間 1:16
20:33	YuJia	ㄟㄟ
20:33	YuJia	你明天ㄑ騎機車還開車
20:34	喬	不一定  怎麼了
20:34	YuJia	沒阿  看要不要來載我
20:45	喬	喔喔
20:45	喬	晚點看怎樣再決定
21:03	喬	你們在家都在幹嘛？
21:05	YuJia	[貼圖]
21:05	YuJia	Tv
21:06	喬	是噢
21:06	喬	這麼無聊
21:06	喬	全家一起看？
21:07	YuJia	和我解
21:07	喬	你爸媽睡了喔
21:13	YuJia	沒啊
22:52	YuJia	欸
22:53	YuJia	8點幾極館?

2016/02/11(週四)
24:35	YuJia	[貼圖]
24:40	喬	好啊
24:45	喬	你有車嗎？
24:47	YuJia	有  
24:48	YuJia	除非你本來就要開車
24:48	YuJia	我1045要回到家
24:49	喬	喔喔
24:49	喬	明天起來如果很冷再開車吧
24:50	喬	哪裡也不好停
24:50	喬	起床電話聯絡
7:29	YuJia	[貼圖]
7:36	喬	我要開車
7:40	YuJia	[貼圖]
7:40	YuJia	確定嗎
7:40	喬	嗯
7:40	YuJia	我2245要到家喔
7:40	喬	恩
7:40	YuJia	來載我?
7:41	喬	可阿
7:41	YuJia	[貼圖]
7:55	YuJia	出發了?
7:55	喬	嗯
7:57	喬	你走到四維路上
7:59	YuJia	[貼圖]
8:00	喬	快喔我快到了
8:00	YuJia	到了
8:01	喬	對向車道網技擊館方向
8:01	YuJia	 等紅燈
13:39	YuJia	做啥
13:39	喬	？
13:39	喬	沒阿
13:40	喬	剛吃飽回家撐著
14:01	YuJia	有節目嗎
15:49	YuJia	[貼圖]
15:49	YuJia	在哪
15:53	喬	在我家  差不多要去好市多了
15:53	喬	我媽剛回來
16:07	YuJia	[貼圖]
16:07	YuJia	晚餐一起嗎
16:27	YuJia	[貼圖]
16:28	喬	晚餐喔
16:28	喬	你一個人？
16:28	YuJia	[貼圖]
16:36	喬	還是要來我家吃
16:36	YuJia	[貼圖]
16:37	喬	晚餐我家要過去對面大姨家吃
16:37	YuJia	有要看電影嗎
16:39	喬	目前沒
16:40	喬	過年沒提前買票都不用看
16:44	YuJia	[貼圖]
17:10	喬	上網查都沒位子
17:10	喬	除非前一天訂
17:10	YuJia	在哪
17:13	喬	好市多
17:14	喬	要結帳
17:26	YuJia	幹  很無聊
17:28	喬	哈
17:28	喬	你沒過去嗎
17:28	YuJia	[貼圖]
18:03	YuJia	妳在吃了喔
18:05	YuJia	明天打球嗎
18:10	喬	嗯  正在吃
18:10	喬	要來嗎
18:10	喬	很多吃不完
18:10	YuJia	[貼圖]
18:30	喬	未接來電
19:37	喬	明天可以看要不要看電影
20:46	YuJia	很貴
20:48	喬	嗯嗯
21:03	YuJia	您已結束通話
22:15	YuJia	欸
22:15	YuJia	明天怎樣

2016/02/12(週五)
24:37	喬	剛打完牌
24:37	喬	又輸
24:37	喬	[貼圖]
1:19	YuJia	[貼圖]
1:19	喬	明天要吃飯哦？
1:25	YuJia	通話時間 5:42
1:55	喬	別打電話了～傳LINE，我想多睡點
10:50	喬	所以要吃中午還是晚上
10:53	YuJia	通話時間 2:25
11:03	喬	不然你問康要不要去你家打牌
11:03	喬	0.0
11:04	YuJia	[貼圖]
11:05	YuJia	先看吃飯吼
11:06	喬	嗯
11:06	喬	就打電話訂阿
12:49	YuJia	昨天太晚不敢按電鈴打擾您，只好偷偷放在您家門口，請查收！
12:50	YuJia	[圖片]
12:54	喬	你阿六仔嗎
12:54	喬	偷渡來的齁
13:01	YuJia	[貼圖]
13:02	YuJia	下午打?
13:06	喬	有其他選項嗎…
13:06	喬	晚點如果真的沒事再跟你去打好了
13:07	YuJia	[貼圖]
13:51	喬	剛去您們家拜年，
你不在，伴手禮放
在您門口~~
13:51	喬	[圖片]
14:13	YuJia	人民幣比較大
14:28	喬	不是要看張惠如
14:35	YuJia	[貼圖]
14:35	YuJia	明天?
15:11	喬	通話時間 1:55
15:29	YuJia	你等一下會開車嗎
16:42	喬	不一定哦
18:11	YuJia	通話時間 0:55
18:11	YuJia	無人接聽
18:12	YuJia	通話時間 0:15

2016/02/13(週六)
10:04	YuJia	有節目嗎
11:01	喬	現在出去吃飯
11:59	喬	看你想幹嘛
12:41	喬	你應該也只能打球吧
12:42	YuJia	[貼圖]
12:42	喬	電影你又不想看
12:42	YuJia	找康?
12:42	喬	找他去那
12:43	喬	[貼圖]
12:44	YuJia	[貼圖]
12:58	喬	怎樣？
12:58	喬	有何想法
13:28	YuJia	百貨會很多人?
13:29	喬	應該蠻多
13:29	喬	你去逛？
13:29	喬	你要去逛？？
13:41	YuJia	都可
13:43	喬	有別的嗎…
13:46	YuJia	[貼圖]
14:26	YuJia	等等和我姊去逛逛
14:29	YuJia	還是找康聊天?
14:33	喬	不然你找你姐去逛？？
14:34	YuJia	[貼圖]
15:02	YuJia	明天找康?
15:02	喬	打球嗎
15:02	YuJia	都可
15:02	YuJia	不然要回去了
15:08	YuJia	欸 我現在有空可打牌
15:47	喬	去你家打？
15:48	YuJia	[貼圖]
15:49	YuJia	人太少
15:49	喬	嗯
15:49	喬	不然來我家
15:49	喬	１００、５０
15:49	YuJia	我沒車喔
15:49	喬	[貼圖]
15:51	YuJia	我到1800
15:54	喬	你不是跟你姐在一起
15:54	YuJia	[貼圖]
15:55	YuJia	她去洗三溫暖
15:56	喬	你沒跟他去哦
15:56	YuJia	[貼圖]
15:56	喬	[貼圖]
15:56	喬	那你去養生館好了
15:57	YuJia	[貼圖]
15:57	喬	[貼圖]
16:35	YuJia	[圖片]
19:12	喬	明天早上看要不要打
20:32	喬	在忙？？
20:50	YuJia	[貼圖]
21:59	喬	打幾點？？
22:43	YuJia	有車嗎
22:45	喬	還開車喔
22:45	喬	你有車嗎
22:45	YuJia	不確定
22:45	YuJia	你會開嗎
22:46	喬	不一定
22:46	喬	看我爸媽要不要用
22:46	YuJia	[貼圖]

2016/02/14(週日)
24:02	YuJia	明天電話聯絡嗎
24:12	喬	嗯
24:12	YuJia	幾點起床
24:14	喬	看要約幾點
24:16	喬	康是不打的意思？
24:17	YuJia	應吧
24:19	YuJia	不用預設他會去吧
24:20	YuJia	730打給你
24:20	YuJia	確定要打吼
24:21	喬	嗯
7:32	YuJia	欸
7:32	YuJia	起床了嗎
7:38	喬	騎機車好了   不然康又說不載他
7:38	YuJia	[貼圖]
7:39	喬	所以呢
7:39	喬	你有機車嗎
7:39	YuJia	[貼圖]
7:39	YuJia	我先問我姊
7:39	喬	…
7:40	喬	你家不是有機車
7:41	YuJia	媽騎走
7:42	YuJia	我姊可
7:42	YuJia	她載我
7:43	喬	嗯
7:50	YuJia	欸欸  回程可載嗎
7:50	喬	嗯
13:42	YuJia	ㄟㄟ
13:42	YuJia	有要來我家打打嗎
13:42	喬	打牌哦？
13:42	YuJia	黑阿
13:43	喬	安內
13:43	喬	你姐要打多大阿
13:43	YuJia	100/50
13:43	喬	安內
13:43	喬	你Ok喔？
13:43	YuJia	我隨便
13:43	喬	唷
13:43	喬	都可阿
13:43	喬	康不知道打不打
13:43	YuJia	問康?
13:44	喬	問吧
14:37	喬	通話時間 0:33
14:39	喬	…
14:39	喬	到底要怎樣
14:43	YuJia	通話時間 2:50
14:44	YuJia	撲克牌?
14:44	喬	…
14:45	喬	毛很多欸
14:45	喬	[貼圖]
14:45	YuJia	你會打吼
14:46	喬	會阿
14:54	YuJia	來吧
14:54	YuJia	至少可以來聊天
14:55	YuJia	[貼圖]
14:55	YuJia	你會算台數吼
14:59	YuJia	60/20
14:59	喬	我不太會欸  只要我們講好就好吧
14:59	YuJia	[貼圖]
15:00	喬	乾脆５０ 、２０比較好算
15:00	YuJia	會被我姊幹繳
15:00	YuJia	要來快啦 
15:00	喬	嗯
15:00	喬	先去買紙吧
15:01	喬	還有夾子   大小看你的桌子有多厚
15:01	喬	自己斟酌
15:01	YuJia	幹  桌子是長方形的
15:03	喬	……
15:03	喬	那招
15:03	喬	差很多嗎
15:03	YuJia	要問康要來嗎
15:11	YuJia	欸欸
15:11	YuJia	2杯50藍
15:13	YuJia	欸欸要買紙
15:14	YuJia	要買麻將紙
15:15	YuJia	[圖片]
15:15	YuJia	在整理
15:15	YuJia	中
15:19	喬	早知來我家打
15:19	YuJia	[貼圖]
15:20	喬	你沒去買紙嗎
15:20	YuJia	在辦桌子
15:22	YuJia	欸欸  不用了  有熬到紙
15:23	喬	好
15:26	喬	下來帶我
19:17	喬	[圖片]
19:18	YuJia	妳吃的?
19:18	喬	沒拉
19:19	YuJia	[貼圖]
19:19	喬	人家傳的
19:48	YuJia	[貼圖]

2016/02/15(週一)
16:04	YuJia	幾點車啊
17:02	喬	２０３６
21:19	YuJia	[圖片]
21:29	喬	！
22:03	喬	我接下來放１９、２３
22:04	YuJia	分開喔
22:04	喬	嗯
22:05	喬	就明天開始上３休１
22:05	YuJia	[貼圖]
22:05	喬	有需要可以改啦
22:05	喬	然後月底放２７～２９

2016/02/16(週二)
12:16	喬	欸
12:16	喬	你不是還要在新竹好幾年
12:19	YuJia	[貼圖]
12:19	喬	要不要買房保值
12:20	喬	你現在租的多少
12:21	YuJia	7500
12:21	YuJia	幹嘛
12:21	YuJia	要一起喔?
12:21	喬	或是我買來租你
12:21	喬	哈…
12:21	喬	也可以一起阿
12:22	喬	你早該買的
12:30	YuJia	[貼圖]
12:30	YuJia	啊你不是要回高
12:47	喬	是啊
14:28	YuJia	[圖片]
20:52	YuJia	在哪
21:10	喬	回派出所了

2016/02/17(週三)
24:20	YuJia	看要不要去賣場
24:20	喬	可阿
16:03	YuJia	when
16:04	喬	明早？？
16:04	YuJia	早上.....
17:35	喬	通話時間 0:53
17:35	YuJia	Pdf password cracker
17:45	喬	嗯嗯
17:45	喬	抓不到  抓其他的沒辦法用
18:19	YuJia	[貼圖]
18:21	YuJia	http://m.xuite.net/blog/yh96301/blog/53515215

2016/02/18(週四)
2:40	喬	星期五我想看班加西
2:40	喬	你要去嗎
2:40	喬	中午
11:55	YuJia	中午不一定
19:32	YuJia	線上第一人稱射擊遊戲大作《CSO2 絕對武力Online 2》，於今(18)日正式公測上市。

2016/02/19(週五)
24:30	YuJia	ㄟ
24:30	YuJia	何時賣場
24:31	YuJia	明天1400後有空
24:38	喬	那1400去賣場??
1:36	YuJia	1500好點
2:55	喬	Ok
12:14	YuJia	無人接聽
12:18	YuJia	[圖片]
12:58	喬	[貼圖]
14:12	YuJia	下雨
15:11	喬	沒阿
15:20	喬	通話時間 0:36
15:49	YuJia	98
15:53	YuJia	通話時間 0:25
16:03	喬	通話時間 0:13

2016/02/20(週六)
15:25	YuJia	上幾點的
15:48	喬	１４～０２

2016/02/21(週日)
24:19	YuJia	明天上幾點
24:19	YuJia	周一可看電影
24:20	喬	週一要看上啥班
13:01	YuJia	今天上啥班
13:14	喬	12-24
14:29	喬	康杰整天想妹…
14:49	YuJia	...

2016/02/23(週二)
10:09	YuJia	霎時放
10:26	喬	今天本來放
10:27	喬	結果停休８～１６
10:27	YuJia	[貼圖]
10:27	喬	怎樣
10:28	喬	我中午就沒事了
10:28	喬	１２～１６不上也可以
10:29	YuJia	我要也是晚上耶
10:29	喬	喔
10:29	YuJia	1800之後
10:29	喬	傳那個圖沒人知道你要表達什麼…
10:29	YuJia	[貼圖]
14:35	YuJia	[圖片]
14:35	YuJia	[圖片]
14:35	YuJia	[圖片]
15:11	喬	…………
16:56	喬	未接來電
17:12	YuJia	怎
17:34	YuJia	通話時間 2:31
17:35	喬	我想看２１３５的班家西
17:35	喬	[貼圖]

2016/02/24(週三)
12:36	喬	[圖片]
12:36	YuJia	[貼圖]
12:41	喬	人家喜歡體脂低的
12:41	YuJia	說12%以下不好
12:41	喬	安內
12:42	喬	運動員才有這麼低吧
12:42	YuJia	練 要低就有多低阿

2016/02/28(週日)
14:47	YuJia	在哪
14:47	喬	台南
14:47	喬	載我爸媽來買東西
14:47	YuJia	[貼圖]
14:48	喬	怎麼了
14:49	喬	你有回高雄嗎？
14:49	YuJia	[貼圖]
14:49	喬	嗯
22:17	YuJia	靠 妳跑去找王以雲喔
22:17	喬	吃喜酒
22:17	喬	國小同學
22:17	YuJia	[貼圖]
22:18	喬	怎了
22:20	YuJia	梅阿

2016/03/01(週二)
13:14	喬	ㄟ
13:14	喬	星期四 我想去看13小時 班加西的秘密士兵
13:14	喬	巨城18:35
13:14	喬	要不要來
13:14	YuJia	有會
13:14	喬	0.0
13:14	YuJia	[貼圖]

2016/03/02(週三)
20:01	喬	通話時間 1:02
20:09	YuJia	我約2230要去火車站接她
20:09	YuJia	看要不要吃
20:09	YuJia	先約
20:12	喬	吃啥
20:13	YuJia	都可
21:05	YuJia	更正10點
21:05	YuJia	要不要快喔
21:06	喬	你吃好了
21:18	YuJia	[貼圖]

2016/03/03(週四)
11:39	YuJia	有放假嗎
11:40	喬	７～９回高雄
11:43	YuJia	今天沒喔
11:56	喬	沒
12:02	YuJia	[貼圖]

2016/03/05(週六)
22:16	YuJia	上班?
22:16	喬	剛下班
22:16	YuJia	吃?
22:17	喬	啥
22:17	YuJia	要吃嗎
22:17	喬	吃啥
22:17	YuJia	市區?
22:17	YuJia	都可
22:20	YuJia	通話時間 2:01

2016/03/08(週二)
19:02	YuJia	哪
19:16	喬	高雄啊

2016/03/11(週五)
19:23	YuJia	欸
19:23	YuJia	我們實驗室有學生被抓去給警察問
19:24	YuJia	你知道什麼事嗎
19:24	YuJia	好像是電腦網路的事  例如盜版下載之類的
19:33	喬	誰說的阿？
19:33	YuJia	老師
19:33	YuJia	知道嗎
19:34	喬	是喔
19:34	喬	誰
19:34	喬	老王哦？
19:34	YuJia	[貼圖]
19:34	YuJia	有嗎
19:35	喬	阿災
19:35	YuJia	[貼圖]
19:40	喬	老師叫你問喔？
19:40	YuJia	[貼圖]
19:44	喬	嗯嗯
19:44	喬	幹嘛你也有用盜版怕被抓喔？
19:44	YuJia	還好
20:13	YuJia	教官打來叫我們老師去的
20:36	喬	是喔
20:37	喬	可能想說要通知一下老師吧
20:37	喬	如果他有課失聯也不好
20:37	YuJia	啥
20:38	YuJia	所以啥事
20:38	喬	我不知道阿
20:38	喬	裡面好像很忙    我晚點回去再了解

2016/03/12(週六)
18:03	YuJia	[貼圖]
18:04	喬	[貼圖]
18:05	YuJia	[貼圖]
18:05	YuJia	見面說

2016/03/13(週日)
10:14	YuJia	霎時放
10:39	喬	123
10:39	喬	回高雄
14:51	YuJia	晚上有節目嗎
14:51	喬	啥
14:52	喬	今天？
14:53	YuJia	[貼圖]
14:53	喬	上班欸
14:53	喬	到１２點
14:54	YuJia	[貼圖]
16:35	喬	Adobe 可以轉word嗎？
16:36	YuJia	常常失敗
16:36	喬	是喔
19:19	YuJia	判男大生4個月，得易科罰金16萬元
19:19	YuJia	是說可罰16萬 不用坐牢意思嗎
19:30	喬	蛤？？？
19:30	喬	什麼
19:32	喬	四個月怎麼會是１６萬
19:32	喬	４月x３０日x$1,000=$120,000
21:55	喬	幹嘛問這些？？
22:32	YuJia	沒啦

2016/03/14(週一)
14:09	YuJia	[圖片]

2016/03/16(週三)
11:56	YuJia	在哪阿
11:56	喬	高雄
16:56	YuJia	[貼圖]

2016/03/19(週六)
13:06	YuJia	哪
13:06	喬	公司
13:07	YuJia	匙時放
13:07	喬	1.2
18:12	喬	妳最近有被推銷辦信用卡嗎
19:53	YuJia	沒
19:55	喬	嗯…
20:04	YuJia	。被誰
20:06	喬	BJ4
20:34	YuJia	真假
20:34	YuJia	真假啦
20:34	YuJia	[貼圖]
21:01	喬	p
22:34	YuJia	哪一家啊
23:16	喬	你要辦喔？
23:16	YuJia	梅阿
23:16	YuJia	好奇哪家而已
23:18	喬	土銀

2016/03/20(週日)
24:12	YuJia	[貼圖]
24:12	YuJia	她媽啊

2016/03/21(週一)
10:32	YuJia	放?
10:33	喬	嗯

2016/03/22(週二)
22:24	喬	我放都不找我～
22:25	喬	沒放一直找
22:25	喬	[貼圖]

2016/03/23(週三)
24:10	YuJia	下雨啊啊

2016/03/24(週四)
2:36	YuJia	啥時回高
8:59	喬	你想啥時回
12:08	YuJia	你最近啥時放
12:10	喬	六日
12:10	喬	不回
12:10	喬	之後３０、３１
16:47	YuJia	只有兩天也不能
17:36	喬	你說回家嗎？
19:04	YuJia	[貼圖]
19:05	喬	下個月阿
19:06	YuJia	可能下周回
19:07	喬	下週幾？？
19:08	YuJia	不確定 周四之後吧
19:12	喬	嗯嗯

2016/03/26(週六)
12:17	YuJia	有節目嗎
13:15	喬	目前沒
13:15	喬	有建議嗎
13:25	YuJia	下午我會去打吧
13:29	喬	是哦
13:29	喬	OK
13:29	喬	大概幾點
13:29	YuJia	3.4?
13:30	YuJia	晚上會冷
13:30	喬	OK
13:30	喬	要去找我
13:30	YuJia	[貼圖]
15:52	YuJia	我要去瞜
15:53	喬	嗯嗯
15:53	喬	球還有氣嗎
15:53	YuJia	我學弟會帶
15:53	喬	那個學弟
15:53	YuJia	你不認識
15:53	喬	喔喔
15:54	喬	先過去我隨後到
16:13	YuJia	出門
16:55	喬	球場沒看到人事怎麼回事
17:37	喬	[貼圖]
19:28	YuJia	有啊
19:28	YuJia	剛回來
19:28	喬	你幾點才去
19:28	YuJia	我打出門時
19:28	喬	你在哪一場
19:28	YuJia	溜冰場
19:28	喬	我走兩遍都沒看到
19:29	喬	[貼圖]
19:30	YuJia	……
21:09	YuJia	明天吃鍋?
21:10	YuJia	牛肉火鍋?
22:19	喬	明天可能要晚上

2016/03/30(週三)
13:39	喬	ㄟ
13:39	喬	今天要打球嗎？
13:40	YuJia	[貼圖]
13:40	YuJia	500?
13:51	YuJia	730有事
13:52	喬	好
13:52	喬	1700
13:56	喬	我有同事要去
13:58	喬	OK嗎？
13:58	喬	帶球
14:13	YuJia	OK阿
14:13	YuJia	我530到
14:15	喬	嗯

2016/03/31(週四)
10:51	YuJia	欸
10:51	YuJia	吃1230?
10:51	喬	嗯
11:02	喬	先買？
11:14	YuJia	[貼圖]
11:15	YuJia	No 我開會到12:15
11:22	YuJia	不然1245買 再吃
12:11	喬	[貼圖]
12:11	喬	先吃
12:18	YuJia	吃啥
12:19	喬	你要吃啥
12:24	YuJia	老先覺?
12:37	YuJia	通話時間 2:43

2016/04/01(週五)
13:13	YuJia	今天燒幾眼
13:13	YuJia	上幾點
13:13	喬	１２～２４
13:13	YuJia	明天呢
13:14	喬	幹嘛？
13:15	YuJia	看有無好吃的

2016/04/06(週三)
13:42	YuJia	啥時放
13:42	喬	昨天
13:42	喬	9~11
13:43	喬	回高雄
13:43	YuJia	?
13:43	喬	昨天放阿
13:43	喬	然後9-11
13:43	YuJia	[貼圖]
13:43	喬	要回去嗎
13:43	YuJia	[貼圖]
13:43	YuJia	在高鐵
13:44	喬	要回去？
13:44	YuJia	要回新竹了
13:44	喬	...
13:44	喬	幹
13:45	YuJia	[貼圖]
13:45	YuJia	[貼圖]

2016/04/07(週四)
19:29	YuJia	上幾點
19:30	喬	到24

2016/04/09(週六)
20:39	YuJia	上到幾點
20:39	YuJia	啥時放假
21:47	喬	未接來電
21:50	喬	已下班
21:50	喬	明天早上停休
21:50	喬	下午會回家
22:57	YuJia	Ok

2016/04/12(週二)
18:11	YuJia	啥時放
18:17	喬	已放
18:17	喬	在高雄

2016/04/14(週四)
12:36	YuJia	回來沒
12:53	喬	恩

2016/04/15(週五)
12:13	YuJia	啥時放
12:29	喬	六日
12:30	YuJia	名天喔
12:30	YuJia	[貼圖]
13:03	喬	嗯
13:10	YuJia	靠北
13:10	喬	啥
13:11	YuJia	一見面就推銷信用卡
13:22	喬	[貼圖]
13:22	喬	他真的想錢想瘋了

2016/04/16(週六)
11:33	YuJia	晚上有節目嗎
11:46	喬	晚上幫學長慶生
11:46	喬	明天比較有空
11:56	YuJia	[貼圖]
20:21	喬	我沒事了
20:23	YuJia	meeting
20:24	喬	喔喔
21:28	YuJia	有節目嗎?
21:56	喬	明天吧
21:56	喬	看要打球還是怎樣
21:57	YuJia	會下雨
23:41	喬	再看看吧
23:42	喬	不然還有什麼節目

2016/04/17(週日)
17:38	YuJia	有下雨嗎
17:51	喬	好像沒
18:59	YuJia	有節目嗎
19:10	喬	看九點要不要打吧
19:10	喬	９３０
19:17	YuJia	不是下雨嗎
19:18	喬	喔喔
19:18	喬	那就無法了
19:20	YuJia	有下嗎
19:21	喬	等一下看看
19:21	喬	目前看是沒
19:21	YuJia	[貼圖]
20:38	YuJia	打?
20:53	YuJia	您已結束通話

2016/04/18(週一)
24:16	YuJia	[圖片]
24:16	喬	三小
24:16	YuJia	超像妳
2:38	喬	[貼圖]
15:15	YuJia	啥時放
15:20	喬	五六

2016/04/21(週四)
11:44	YuJia	要看電影嗎
11:56	喬	看啥
14:12	YuJia	上到幾點
14:34	喬	１２
23:36	喬	欸
23:36	喬	明天打嗎？

2016/04/22(週五)
24:22	YuJia	ok
24:22	YuJia	我要去買枕頭
24:22	YuJia	要去嗎
24:22	YuJia	愛買吧
24:26	喬	嗯
11:08	YuJia	下午打 晚上賣場
11:08	YuJia	[貼圖]
11:08	喬	可
11:08	YuJia	[圖片]
11:09	YuJia	檢查你的
11:09	喬	打幾點
12:26	YuJia	1630?
12:43	喬	好
16:10	喬	欸
16:10	喬	我還在等皮膚科看診
16:10	喬	改１７００好嗎？
16:19	YuJia	OKOK
16:19	YuJia	沒差  我可先去
16:19	喬	不然叫我學弟跟你先去
16:19	喬	哈
16:19	喬	有球嗎
16:22	YuJia	靠  我友學第友要去
16:32	喬	是喔
16:32	喬	沒差阿
16:33	喬	可以替換休息
19:00	YuJia	你有要去嗎
19:06	喬	賣場好啊
19:06	喬	我正要洗澡
19:06	喬	晚點？
19:10	YuJia	其實我只是要買枕頭而已
19:10	YuJia	你有要買的齁
19:10	喬	是喔
19:11	喬	買些零食
19:11	YuJia	8點或10點
19:12	喬	十點好了
19:12	喬	你晚餐？
19:13	YuJia	還不餓
19:13	喬	[貼圖]
19:13	YuJia	你先吃
19:14	喬	好
21:58	喬	欸
21:58	YuJia	OK
21:58	YuJia	要走了嗎
21:59	喬	有點累XD
21:59	YuJia	恩恩
21:59	喬	看要不要明天  不然你就先去吧
21:59	YuJia	OK

2016/04/28(週四)
15:35	YuJia	晒時放
15:59	喬	明後

2016/04/29(週五)
12:18	YuJia	今明看要去賣場否
12:33	喬	今天阿
12:33	YuJia	2200?
12:40	喬	[貼圖]
19:45	YuJia	明天你可去嗎
19:46	喬	今天
19:46	YuJia	[貼圖]
21:12	YuJia	我好了
21:32	喬	２２００？
21:50	YuJia	98
21:52	喬	[貼圖]
21:52	喬	哪裡等
21:57	YuJia	星星
21:57	喬	[貼圖]
21:58	喬	你要出門了??
21:58	YuJia	[貼圖]
21:58	喬	[貼圖]

2016/05/01(週日)
15:34	YuJia	[圖片]
15:35	喬	[貼圖]

2016/05/03(週二)
14:11	YuJia	妳下周回去嗎
14:11	YuJia	本周啥時放
14:33	喬	四五

2016/05/11(週三)
17:03	YuJia	本周啥時放
17:07	喬	五六日一
17:07	喬	要回家
17:07	喬	我姐星期日訂婚
17:08	YuJia	[貼圖]

2016/05/19(週四)
18:16	YuJia	啥時放
20:42	喬	星期六開始
20:42	喬	放到下星期日
20:42	喬	準備考試
20:43	喬	有節目嗎？
20:50	YuJia	下週一出國
20:51	喬	安內
20:51	喬	去那？
20:51	YuJia	馬來襲鴨
21:23	喬	[貼圖]
21:25	YuJia	吉隆坡
21:30	喬	嗯嗯
21:30	喬	有名產嗎
21:32	YuJia	[貼圖]

2016/05/27(週五)
21:29	YuJia	在哪
21:30	喬	宿舍
21:30	喬	明後天考試
21:30	YuJia	Ok

2016/05/29(週日)
8:13	喬	下午打球嗎？
8:13	喬	我考到３點
10:58	YuJia	3點到新竹不是晚上了
11:57	喬	不用一小時就可以到好嗎
17:01	喬	通話時間 0:27
17:22	YuJia	通話時間 0:37
17:22	YuJia	球場見
17:22	喬	嗯

2016/06/02(週四)
24:52	YuJia	啥時放
24:52	喬	６、１０－１３
24:52	喬	１０－１３回家

2016/06/05(週日)
12:13	YuJia	[圖片]
12:13	喬	[貼圖]
12:14	喬	好噁
20:49	YuJia	明天放嗎
20:49	喬	對

2016/06/06(週一)
17:52	YuJia	電影嗎
17:52	喬	那部？
17:54	YuJia	亨利?
18:13	喬	幾點
18:17	YuJia	還是美國隊長
18:17	喬	美國隊長看過了
18:18	喬	不早說 我刪檔了
18:18	YuJia	算了 好像不好看
18:19	喬	X戰警好看嗎？
18:19	YuJia	……沒看過之前的
18:20	喬	我有些有，有些沒
18:20	喬	反正他劇情都跳來跳去的
18:24	YuJia	忍者龜?
18:29	喬	還是覺得X戰警好一點
18:32	YuJia	2340太晚
19:13	喬	２０：５５
19:13	喬	２２：２０
19:43	YuJia	2220有?
19:44	喬	有啊
19:44	YuJia	再開看看好了
19:44	YuJia	再看看好了
19:44	喬	遠百
19:44	喬	２２２０
19:45	喬	再看看是？
19:45	喬	不看嗎？
19:49	YuJia	先不要
19:50	喬	喔

2016/06/07(週二)
16:36	YuJia	欸
16:36	YuJia	上幾點
18:04	喬	１２～２４

2016/06/09(週四)
16:56	YuJia	您已結束通話
18:02	喬	回高雄了喔？
18:06	YuJia	[貼圖]
19:17	喬	[貼圖]
19:17	喬	我晚上回去
21:00	YuJia	[貼圖]
21:05	YuJia	塞車嗎
21:32	喬	高鐵
21:51	YuJia	明天打嗎
21:53	喬	沒代球鞋內
21:53	喬	只有慢跑鞋
21:53	喬	投投籃應該可以
21:53	喬	哈
21:54	YuJia	[貼圖]
21:55	喬	你有球鞋？
21:55	YuJia	[貼圖]
21:55	喬	要打幾點
21:56	YuJia	只能早上
21:56	喬	嗯
21:56	喬	找康？
21:56	YuJia	都可
21:56	YuJia	他是不是要考試了
21:56	喬	好像是
21:56	YuJia	[貼圖]
21:56	喬	八月的樣子
21:57	YuJia	[貼圖]
21:57	YuJia	所以類
21:57	喬	所以？
21:57	喬	[貼圖]
21:57	喬	哈哈
21:58	喬	網咖了
21:58	喬	哈哈哈哈
21:58	YuJia	[貼圖]
21:58	喬	開玩笑啦
21:58	YuJia	網咖累
22:12	YuJia	我周六回 只有明天
22:13	喬	是喔
22:13	喬	這麼短？
22:13	喬	要會女友？
22:13	YuJia	[貼圖]
22:13	喬	叫你馬子來高雄啦~
22:13	喬	哈
22:14	YuJia	[貼圖]
22:14	喬	明天早上打ok啊
22:14	喬	０８：００？
22:37	YuJia	[貼圖]
22:37	YuJia	有車嗎
22:37	喬	不確定，還沒到家
22:38	喬	不知道明天有沒有要幹嘛
23:39	YuJia	[貼圖]
23:40	YuJia	所以?

2016/06/10(週五)
24:20	喬	打
24:20	YuJia	下雨……
24:21	喬	有嗎？
24:39	YuJia	[貼圖]
24:39	YuJia	有車?
24:45	喬	有啊
24:45	喬	[貼圖]
24:53	YuJia	明天電話聯絡
24:53	喬	嗯
8:04	喬	所以？？
9:43	YuJia	下雨
12:47	YuJia	要找康傑出來嗎
12:57	喬	都可啊
12:57	喬	你問看他能不能
13:34	YuJia	[貼圖]

2016/06/11(週六)
12:37	YuJia	[圖片]
12:44	喬	這麼早回去幹嘛
12:46	YuJia	後面是洪秀住
12:46	YuJia	都下雨能幹嘛
12:48	喬	你沒找他拍照哦
12:49	YuJia	一堆隨護

2016/06/16(週四)
17:48	YuJia	霎時放
17:56	喬	明天開始３天
17:56	喬	要回家
17:56	喬	晚上要賣場嗎
17:56	喬	２２：００
17:57	YuJia	[貼圖]
22:02	YuJia	霎時下班
22:03	喬	下班了
22:06	YuJia	所以?
22:07	喬	賣場？
22:08	YuJia	要去嗎
22:13	YuJia	[貼圖]
22:14	喬	好啊
22:14	喬	Go
22:17	YuJia	 哪裡集合
22:17	喬	老地方啊
22:23	喬	我已經到了
22:25	喬	你在哪裡
22:25	喬	還可以已讀…

2016/06/20(週一)
19:26	YuJia	啥時回
19:29	喬	你何時要回
19:29	喬	我有可能五六回
19:29	喬	或六日
19:30	喬	再來３０～７/４
19:33	YuJia	不是
19:33	YuJia	會新竹
19:33	喬	已經在上班啊
19:34	YuJia	[貼圖]

2016/06/21(週二)
20:58	YuJia	怎
20:58	YuJia	開會
20:59	喬	無線 分享器 要買哪個牌子的
21:00	YuJia	Asus 可
21:01	喬	[貼圖]
