﻿[LINE] Chat history with 股票交流群組2
"Saved on: 06/24/2016, 18:42"

"Wed, 06/15/2016"
05:25,莊鴻輝,[Photo]
10:53,Stanley winiam,[Photo]
11:57,Hsing. Hsiang,今天期貨結算。感覺應該是拉高結算? 不知各位是否這麼想。
11:58,Stanley winiam,差不多吧
11:58,Stanley winiam,死魚結算
11:59,Hsing. Hsiang,感覺要轉向了
11:59,Hsing. Hsiang,[Sticker]
12:01,Stanley winiam,多空?
12:02,Hsing. Hsiang,我是看空啦!~~因為道瓊跟歐美都已經連續跌多天了。
12:03,Hsing. Hsiang,只是因為期貨拉高結算。。。純屬個人看法。不供參考(Moon kiss)
12:03,Hsing. Hsiang,我一向都不準(hahaha)(hahaha)別信我
18:09,Stanley winiam,[Photo]

"Thu, 06/16/2016"
05:29,莊鴻輝,[Photo]
07:31,Stanley winiam,[Sticker]
07:48,劉容,[Photo]
07:51,Anitazeng湘媞,[Photo]
10:13,Hsing. Hsiang,又是一個賺便當的日子
10:14,Hsing. Hsiang,[Sticker]
11:15,Hsing. Hsiang,"Fed未提高利率 暗示今年將升息兩次
(先前的非農就業數據差於預期，也避險下周英國脫歐變數，市場早已預期要等7月~)

2016-06-16
美國聯準會（Fed）16日維持利率不變，但暗示今年仍將升息兩次，指出美國就業市場在最近顯露疲態之後，仍可望恢復強勁。

不過，Fed調降今、明兩年的經濟成長預測，並表示年底前升息的步調會緩和些。Fed決策官員未表明何時可能升息，但從他們預測利率落點的點狀圖（dot plot）看來，官員仍預留在7月升息的空間。

負責Fed貨幣決策的聯邦公開市場操作委員會（FOMC）會後發布聲明表示：「勞動市場改善的步調已經趨緩。」但聲明也指出，即使Fed逐步升息，「經濟景氣會以溫和步調擴張，而勞動市場指標將增強」。

Fed決策者發布最新一季的經濟預測，指向近期內國內生產毛額（GDP）成長率可能僅以2%的成長步調擴張，比3月的預測小幅下修。決策者一直憂慮美國就業市場可能顯露疲態，以及英國下周公投若決定脫離歐盟可能掀起金融動盪。但Fed 15日發布的政策聲明並未提及英國脫歐公投。

Fed決議維持聯邦資金利率在0.25%至0.50%不變。Fed去年12 月升息1碼，是近十年來首次提高基準利率，之後便按兵不動至今，主因是全球經濟減緩與金融市場動盪。美國5月新增就業人數太低，使Fed官員最近對升息展望態度轉趨保留。但最近的數據顯示，上月就業報告疲弱，可能只是一時現象。Fed在最新政策聲明表示，自4月開會以來，美國經濟景氣似已回升。"

"Fri, 06/17/2016"
05:25,莊鴻輝,[Photo]
07:16,Stanley winiam,[Photo]
07:17,kevin,[Sticker]
07:21,Stanley winiam,短多嚕 拉260點
09:32,葉峰裕,蜂蜜正確吃法 https://youtu.be/6Mh0EKBfGYg
09:33,葉峰裕,[File]
11:12,楊育勝,"8431
有主力在做
從67-88"
11:13,Crease  曾77,什麼67到88
11:13,楊育勝,"價位
我71全出了"
11:50,楊育勝,"版大請問
豐祥如果今天漲停要賣掉嗎"
11:52,Stanley winiam,我是不會在漲停賣股票辣
11:53,Stanley winiam,美國今天應該是會漲 禮拜一盤勢應該也不會太差
11:53,楊育勝,"我習慣漲停賣掉
有一半會賣錯"
11:54,Stanley winiam,當然 
11:54,Stanley winiam,有三個關鍵 
11:55,Stanley winiam,盤勢 股性 業績
11:58,楊育勝,"那我抱住好了
上次抱到107就又跌回去
好不容易又抱到現在
哈哈算值得啦"
11:59,Stanley winiam,抱吧 他氣勢如烘
12:01,楊育勝,[Sticker]
12:02,劉容,[Sticker]
13:32,楊育勝,豐祥最後五分鐘被倒貨

"Sat, 06/18/2016"
16:05,Stanley winiam,[Photo]

"Sun, 06/19/2016"
09:02,李春福,魔獸：崛起(清晰TC版)
09:02,李春福,[Video]
09:02,李春福,[Video]
09:02,李春福,[Video]
09:02,李春福,[Video]
10:14,建龍,[Sticker]
10:34,莊鴻輝,[Sticker]
18:16,崇宇,[File]
18:28,李宇軒,感謝
20:41,Liwill focus,"窩牛網買賣房地產免仲介費

https://snailhouse.com.tw/?gclid=Cj0KEQjwhZm7BRCUyfS6ho2VjOEBEiQAumpGMoEKBN_dGD845g2vR0yOksSe5sdr3hnIhFR__yQquwwaAhv18P8HAQ"
20:45,Anitazeng湘媞,[Sticker]

"Mon, 06/20/2016"
05:05,莊鴻輝,[Photo]
05:16,Stanley winiam,早安
05:16,Stanley winiam,"以下這則消息不知道會不會影響明天的台股，

西安變電站 18 日凌晨爆炸起火 多家半導體廠生產受到影響
http://finance.technews.tw/2016/06/18/samsung-24/"
05:16,Stanley winiam,[Photo]
08:25,Stanley winiam,[Photo]
08:53,建龍,[Sticker]
08:54,莊鴻輝,[Sticker]
11:31,王喵喵,[Photo]
11:34,Anitazeng湘媞,[Sticker]
11:52,建龍,[Sticker]
11:54,莊鴻輝,[Sticker]
11:56,Stanley winiam,[Photo]
15:13,Stanley winiam,[Photo]
15:26,劉容,[Sticker]
17:13,Stanley winiam,[Photo]
17:14,楊育勝,這誇張了點
17:30,Stanley winiam,跌越深的國家反彈越大
18:41,Stanley winiam,[Photo]

"Tue, 06/21/2016"
05:38,莊鴻輝,[Photo]
05:40,Stanley winiam,[Photo]
05:41,Stanley winiam,美股留下上引線 慶祝行情是否結束? 英國etf爆量 加碼還是出脫?
05:42,莊鴻輝,要保守
09:16,李映萱,請問大家怎麼看光環
09:17,李映萱,先出掉嗎
09:21,楊育勝,目前賠多少
09:25,李映萱,沒陪
09:26,楊育勝,"就再抱吧
感覺會再漲5-10%"
09:26,楊育勝,"我建議啦
不負責喔"
09:27,李映萱,謝謝
09:46,Stanley winiam,[Photo]

"Wed, 06/22/2016"
04:40,莊鴻輝,[Photo]
14:14,Stanley winiam,[Sticker]
17:25,Marlboro,2448跟2618有建議先跑嗎~
18:55,Stanley winiam,晶電最近很強
18:55,Stanley winiam,2618也在彈
20:01,劉容,[Sticker]

"Thu, 06/23/2016"
01:20,Stanley winiam,[Photo]
01:20,Stanley winiam,黑掉
05:07,莊鴻輝,[Photo]
13:04,彭永松,[Photo]

"Fri, 06/24/2016"
05:19,莊鴻輝,[Photo]
08:00,Stanley winiam,http://www.bbc.com/news/politics/eu_referendum/results
08:12,Stanley winiam,https://www.youtube.com/watch?v=y60wDzZt8yg&feature=youtu.be
11:34,Hsing. Hsiang,殺爆了(oh no!)
11:35,莊鴻輝,[Sticker]
11:45,崇宇,這個盤 = =
11:46,Marlboro,日本反。。
11:46,Marlboro,00640L大家要衝嗎?
11:50,楊育勝,殺快300點
11:50,楊育勝,趕緊找股買
11:50,崇宇,忍耐
11:50,崇宇,找好股
11:51,楊育勝,日元升找工具機
11:51,崇宇,用力衝進
11:52,楊育勝,今天要玩當衝
11:52,崇宇,真的
11:52,楊育勝,上銀
11:55,元,買點來了衝啊~~~
11:55,Marlboro,這明天會強彈吧。。
11:56,kevin,明天股市又沒有開盤
12:02,楊育勝,[Sticker]
12:03,毛寶寶,禮拜一台積電除權息，雪上加霜
12:55,楊育勝, 上銀出了喔
15:09,李宇軒,[Photo]
18:10,莊鴻輝,"已經確定了!  
大家一定要注意! 

本月 2 0 日起，馬上開始罰了   不管你是騎機車 或者是開汽車 的 ---請注意!! 

全國(Taiwan)將實施紅燈越線處罰條例， 

凡是在等待紅燈時  超出白色禁止越線者馬上處以900元的罰金。 

還有紅燈右轉  $ 5 4 0 0元(這是目前交通警察的重點工作之一) 注意喔!!! 

本月2 0 日起，沒有車的人，通知一下有車族吧！趕快通知你的親朋好友吧！最好印一張，能提醒自己。 

1 .闖紅燈由1 8 0 0-3 6 0 0元，調為3600 - 7200 元  

2 .超速由1200-2400元，調為6000元+ 每超速 1公里 加罰100 元!!𡿨賺錢很辛苦） 
小心開車，注意安全。

各位注意 ，國道限速100，只能開到105， 不能開到110了， 國道限速110，只能開到115了， 不能開到120了， 超過一律中獎"
